 -32,152,968
 -32,152,968
 -32,152,976
 -32,152,968
 -32,152,968
 -32,152,968
 -32,152,968
 -32,152,968
 -32,152,968
 -32,152,968
 -32,152,968
 -32,152,968
 -32,152,968
 -32,152,968
 -32,152,968
 -32,152,968
 -32,152,976
 -32,152,968
 -32,152,968
 -32,152,968
 -32,152,968
 -32,152,968
 -32,152,968
 -32,152,968
 -32,152,968
 -32,152,968
 -32,152,968
 -32,152,968
 -32,152,968
 -32,152,968
 -32,152,968
 -32,152,968
 -32,152,968
 -32,152,968
 -32,152,968
 -32,152,968
 -32,152,968
 -32,152,968
 -32,152,968
 -32,152,968
 -32,152,968
 -32,152,968
 -32,152,968
 -32,152,976
 -32,152,968
 -32,152,968
 -32,152,976
 -32,152,968
 -32,152,976
 -32,152,968
 -32,152,968
 -32,152,968
 -32,152,968
 -32,152,968
 -32,152,968
 -32,152,968
 -32,152,968
 -32,152,968
 -32,152,968
 -32,152,968
 -32,152,968
 -32,152,968
 -32,152,968
 -32,152,976
 -32,152,968
 -32,152,968
 -32,152,968
 -32,152,968
 -32,152,968
 -32,152,968
 -32,152,968
 -32,152,968
 -32,144,968
 -40,152,976
 -32,152,968
 -32,152,968
 -32,152,976
 -32,152,968
 -32,152,968
 -32,152,968
 -32,152,976
 -32,152,968
 -32,152,968
 -32,152,968
 -32,152,968
 -32,152,968
 -32,152,968
 -32,152,968
 -32,152,968
 -32,152,968
 -32,152,968
 -32,152,976
 -32,152,960
 -32,152,992
 -32,152,968
 -32,152,968
 -32,152,976
 -32,152,976
 -32,152,968
 -32,152,968
 -32,152,968
 -32,152,968
 -32,152,976
 -32,152,968
 -32,152,968
 -32,152,968
 -32,152,976
 -32,152,968
 -32,152,968
 -32,152,968
 -32,152,968
 -32,152,968
 -32,152,968
 -32,152,968
 -32,152,976
 -32,152,968
 -32,152,968
 -32,152,968
 -32,152,968
 -32,152,968
 -32,152,968
 -32,152,968
 -32,152,968
 -32,152,968
 -32,152,976
 -32,152,968
 -32,152,968
 -32,152,968
 -32,152,968
 -32,152,968
 -32,152,968
 -32,152,968
 -32,152,968
 -32,152,968
 -32,152,968
 -32,152,968
 -32,152,968
 -32,152,968
 -32,152,968
 -32,152,968
 -32,152,976
 -32,152,968
 -32,152,968
 -32,152,968
 -32,152,968
 -32,152,968
 -32,152,968
 -32,152,968
 -32,152,968
 -32,152,968
 -32,152,976
 -32,152,968
 -32,152,968
 -32,152,968
 -32,152,968
 -32,152,968
 -32,152,968
 -32,152,968
 -32,152,968
 -32,152,968
 -32,152,968
 -32,152,968
 -32,152,968
 -32,152,968
 -32,152,968
 -32,152,968
 -32,152,968
 -32,152,968
 -32,152,968
 -32,152,968
 -32,152,968
 -32,152,968
 -32,152,968
 -32,152,968
 -32,152,968
 -32,152,968
 -32,152,968
 -32,152,968
 -32,152,968
 -32,152,968
 -32,152,968
 -32,152,968
 -32,152,968
 -32,152,968
 -32,152,968
 -32,152,968
 -32,152,968
 -32,152,968
 -32,152,968
 -32,152,968
 -32,152,968
 -32,152,968
 -32,152,968
 -32,152,968
 -32,152,968
 -32,152,968
 -32,152,968
 -32,152,968
 -32,152,968
 -32,152,968
 -32,152,968
 -32,152,976
 -32,152,968
 -32,152,968
 -32,152,968
 -32,152,968
 -32,152,968
 -32,152,968
 -32,152,968
 -32,152,968
 -32,152,968
 -32,152,968
 -32,152,976
 -32,152,968
 -32,152,968
 -32,152,968
 -32,152,968
 -32,152,968
 -32,152,968
 -32,152,968
 -32,152,968
 -32,152,968
 -32,152,968
 -32,152,968
 -32,152,968
 -32,152,968
 -32,152,968
 -32,152,968
 -32,152,968
 -32,152,968
 -32,152,968
 -32,152,968
 -32,152,968
 -32,152,968
 -32,152,968
 -32,152,968
 -32,152,968
 -32,152,968
 -32,152,968
 -32,152,968
 -32,152,968
 -32,152,968
 -32,152,968
 -32,152,968
 -32,152,968
 -32,152,968
 -32,152,968
 -32,152,968
 -32,152,968
 -32,152,968
 -32,152,968
 -32,152,968
 -32,152,968
 -32,152,968
 -32,152,968
 -32,152,968
 -32,152,968
 -32,152,968
 -32,152,968
 -32,152,968
 -32,152,968
 -32,152,968
 -32,152,968
 -32,152,968
 -32,152,968
 -32,152,968
 -32,152,968
 -32,152,968
 -32,152,968
 -32,152,968
 -32,152,968
 -32,152,976
 -32,152,968
 -48,144,976
 -48,112,984
 -16,216,976
 24,160,968
 -40,144,1016
 16,192,928
 0,152,960
 -40,144,1048
 -96,64,1032
 -48,56,944
 -40,64,992
 8,80,952
 -48,32,936
 -24,24,920
 -24,32,960
 -40,72,1032
 -32,64,1000
 -24,56,976
 -64,64,1008
 -32,40,992
 -8,64,960
 -56,48,992
 -24,56,976
 -40,64,952
 -8,64,1016
 -24,64,1024
 -40,64,976
 -8,56,960
 -32,40,1016
 -8,40,1008
 -16,48,984
 -8,24,928
 8,40,1000
 -24,8,984
 -72,-32,1048
 -48,0,976
 -64,-40,976
 -24,-8,976
 -24,-24,1016
 -40,-24,992
 0,-40,1000
 -24,-80,984
 -16,-56,960
 -40,-48,952
 -56,-80,1008
 -24,-80,1016
 -24,-48,992
 -32,-56,976
 -112,152,1008
 32,-96,1064
 24,-280,944
 16,-240,960
 -32,-144,928
 -96,-40,960
 -32,-128,928
 -24,-72,1000
 -64,-88,984
 -48,-88,976
 -40,-80,1032
 -32,-56,976
 -48,-48,952
 -16,-32,1000
 -24,-24,984
 -24,24,1040
 -24,8,984
 -32,16,976
 -32,32,992
 -40,64,1000
 -32,72,1008
 -32,64,984
 -32,72,1000
 -32,64,976
 -32,64,976
 -32,72,976
 -32,72,976
 -32,104,1024
 -32,96,1016
 -32,56,944
 -32,48,944
 -32,104,1048
 -32,96,1056
 8,-8,848
 24,128,1072
 24,104,968
 -24,16,992
 24,-112,1128
 24,-120,1192
 -48,-88,1360
 8,-56,1176
 104,-80,976
 176,-144,784
 264,-200,800
 88,-136,952
 -16,-112,1040
 -136,-192,952
 32,-336,848
 8,-208,1048
 -248,-144,920
 -56,-232,840
 -48,-240,968
 -176,-136,1040
 -256,-128,1000
 -312,-72,1008
 -368,8,936
 -224,-136,856
 -208,-240,1064
 -280,-176,1016
 -232,-168,1024
 -208,-160,928
 -192,-200,928
 -192,-200,896
 -200,-160,872
 -224,-176,976
 -208,-208,944
 -224,-160,904
 -280,-136,864
 -256,-224,840
 -184,-336,960
 -264,-280,1128
 -400,-184,1112
 -176,-328,1080
 -120,-384,1272
 -296,-216,1096
 -280,-192,984
 -288,-264,1040
 -280,-272,1016
 -200,-248,1040
 -328,-144,1024
 -336,-160,1016
 -272,-296,1040
 -208,-360,1088
 -296,-344,1000
 -296,-416,1064
 -288,-360,1032
 -320,-368,904
 -280,-408,824
 -328,-448,800
 -344,-440,744
 -304,-416,736
 -432,-296,848
 -448,-224,832
 -440,-320,816
 -360,-360,904
 -504,-312,896
 -480,-264,744
 -448,-312,616
 -448,-336,688
 -608,-208,648
 -568,-232,712
 -552,-328,736
 -592,-304,784
 -648,-232,816
 -680,-176,808
 -544,-208,696
 -600,-248,648
 -624,-256,688
 -600,-240,720
 -560,-296,752
 -504,-328,920
 -576,-312,1016
 -608,-232,944
 -520,-272,800
 -512,-240,808
 -616,-176,776
 -480,-208,840
 -528,-264,720
 -480,-272,640
 -488,-200,504
 -352,-376,632
 -344,-384,776
 -464,-376,752
 -440,-440,872
 -472,-448,840
 -448,-408,792
 -568,-336,848
 -608,-400,968
 -600,-432,872
 -512,-560,736
 -576,-592,888
 -584,-592,984
 -504,-512,824
 -496,-432,824
 -624,-296,856
 -632,-216,840
 -600,-232,784
 -528,-256,752
 -544,-232,736
 -592,-216,768
 -608,-192,776
 -624,-168,696
 -664,-152,768
 -608,-176,776
 -672,-120,816
 -584,-160,760
 -560,-112,624
 -576,-136,696
 -552,-184,568
 -504,-320,664
 -616,-328,672
 -576,-344,720
 -704,-288,712
 -736,-304,848
 -848,-152,736
 -856,-128,784
 -848,-112,776
 -776,-184,824
 -784,-168,736
 -760,-224,680
 -728,-280,680
 -752,-256,688
 -800,-144,712
 -784,-96,720
 -696,-56,656
 -776,8,720
 -752,24,728
 -728,32,664
 -672,48,576
 -736,80,568
 -712,48,648
 -720,32,656
 -648,32,616
 -664,80,560
 -680,64,648
 -696,80,664
 -704,56,624
 -640,8,592
 -616,8,464
 -608,0,544
 -632,-48,648
 -544,-80,592
 -488,-56,576
 -600,48,536
 -664,-16,704
 -672,-16,696
 -800,104,496
 -880,24,632
 -928,-176,832
 -848,-200,640
 -976,-192,464
 -1056,-168,616
 -1032,-240,728
 -968,-264,720
 -976,-232,632
 -888,-296,672
 -912,-336,672
 -936,-312,648
 -992,-248,624
 -936,-264,616
 -944,-248,616
 -896,-240,496
 -928,-168,440
 -912,-224,416
 -792,-296,464
 -736,-240,232
 -768,-192,248
 -800,-248,416
 -680,-232,368
 -648,-168,256
 -592,-120,280
 -616,-96,496
 -640,16,560
 -600,32,632
 -520,-24,712
 -456,-96,768
 -488,-152,952
 -536,-184,1104
 -464,-272,1040
 -368,-320,864
 -472,-328,960
 -552,-392,1352
 -568,-448,1368
 -512,-528,1288
 -640,-552,1240
 -640,-664,1176
 -592,-656,1120
 -688,-496,872
 -680,-360,792
 -600,-360,736
 -600,-256,712
 -672,-136,616
 -672,-128,624
 -608,-240,704
 -616,-184,568
 -680,-120,528
 -680,-96,448
 -656,-120,528
 -680,-96,592
 -736,16,544
 -800,48,576
 -664,-112,608
 -592,-144,576
 -728,-80,688
 -800,-32,720
 -760,-88,752
 -752,-104,800
 -792,-80,696
 -744,-112,648
 -752,-160,736
 -744,-168,712
 -712,-168,688
 -728,-192,752
 -712,-200,744
 -744,-136,624
 -744,-96,592
 -736,-64,576
 -728,-152,672
 -744,-192,736
 -720,-112,592
 -712,-88,504
 -744,-136,488
 -672,-224,472
 -624,-232,576
 -728,-112,624
 -744,-80,592
 -688,-128,704
 -712,-152,752
 -728,-120,696
 -744,-176,744
 -648,-240,840
 -672,-184,832
 -736,-144,880
 -712,-264,984
 -664,-320,1024
 -680,-272,824
 -688,-208,824
 -720,-144,808
 -640,-120,736
 -640,-56,688
 -656,-32,720
 -632,-40,656
 -624,-72,688
 -640,-72,720
 -704,-80,712
 -680,-120,728
 -712,-120,712
 -744,-112,752
 -744,-152,688
 -672,-224,712
 -728,-176,664
 -752,-184,696
 -720,-240,664
 -720,-248,600
 -792,-240,664
 -768,-264,688
 -768,-272,624
 -800,-272,704
 -808,-320,728
 -752,-368,696
 -776,-360,632
 -752,-336,656
 -744,-240,616
 -720,-160,552
 -672,-64,416
 -688,-24,528
 -672,16,416
 -600,-24,336
 -432,-192,496
 -352,-216,664
 -456,-120,760
 -336,-144,840
 -240,-240,944
 -208,-184,992
 -288,-72,976
 -240,-80,1072
 -88,-96,944
 80,-152,952
 -16,-48,1240
 -40,48,1224
 40,8,1152
 72,-24,1192
 8,24,1104
 -88,80,1000
 56,-16,1104
 72,24,1032
 8,40,1040
 24,112,1144
 64,120,1032
 40,104,1120
 104,208,960
 120,112,1000
 80,40,1096
 88,32,984
 8,72,1000
 16,40,848
 24,88,928
 24,16,1088
 -16,72,1096
 40,96,1192
 -56,64,1072
 -112,80,848
 -120,48,920
 -112,40,992
 -80,88,1048
 -24,96,1000
 -16,104,984
 16,88,952
 72,80,976
 -40,168,976
 240,96,896
 112,-8,888
 48,-32,896
 144,0,800
 144,48,856
 160,104,904
 32,128,936
 -120,112,1248
 -208,112,1400
 -344,168,856
 -64,256,944
 136,24,1256
 88,208,624
 80,408,936
 32,432,1160
 152,440,1240
 168,352,1016
 152,328,864
 64,360,848
 16,400,832
 48,344,864
 104,272,872
 128,248,920
 16,304,904
 -24,296,872
 48,248,904
 48,208,888
 16,184,856
 -24,136,840
 -40,112,888
 -56,112,1024
 -48,104,1024
 -56,96,968
 -96,104,1032
 -96,112,960
 -24,168,880
 -88,184,976
 -88,168,944
 -40,88,984
 -24,56,928
 -56,48,928
 -48,56,1056
 -80,48,1144
 -64,-8,1112
 -16,-56,1192
 -64,-56,1208
 40,-24,1176
 -48,24,1128
 -80,48,1056
 -24,80,928
 -136,104,1072
 24,120,1008
 -112,96,1072
 -120,96,856
 -24,80,808
 -136,112,864
 -168,56,872
 -80,8,856
 -32,-32,864
 -88,-40,848
 -248,0,776
 -216,8,888
 -104,0,952
 -104,-16,1032
 -80,-24,1032
 -40,-40,1056
 -112,24,1016
 -224,64,1056
 -200,40,1088
 -144,8,1096
 -80,0,1096
 -184,-8,1000
 -160,8,1064
 -80,40,1008
 -120,112,992
 -168,160,992
 -128,168,992
 -128,176,920
 -136,176,944
 -200,152,864
 -224,128,856
 -96,56,944
 -80,32,952
 -160,24,1024
 -80,0,1080
 -80,16,1096
 -128,-16,992
 -56,-40,1016
 -96,48,1056
 -136,96,984
 -128,64,912
 -88,32,1056
 -72,32,952
 8,64,792
 -72,104,944
 -96,104,912
 -80,96,840
 -56,56,944
 -16,-16,1008
 24,-48,1032
 -48,0,936
 -184,48,904
 -200,96,928
 -176,40,928
 -96,-16,1024
 -128,8,1048
 -128,8,1008
 -152,-8,1024
 -152,-48,952
 -152,-64,944
 -168,-16,992
 -152,-16,1048
 -120,-16,1040
 -152,-8,976
 -136,-24,944
 -168,-24,984
 -216,-24,992
 -160,-80,1048
 -184,-56,1056
 -232,-32,1024
 -200,-64,992
 -184,-80,984
 -184,-56,944
 -224,-32,936
 -280,-40,952
 -200,-104,936
 -136,-136,944
 -80,-144,1016
 -56,-136,976
 -56,-136,1104
 -72,-88,1064
 -120,0,1008
 -184,72,928
 -240,128,928
 -184,112,944
 -104,104,928
 -96,168,928
 -136,152,896
 -40,80,920
 -152,64,896
 -128,-24,912
 -72,-88,1032
 -64,-104,1056
 -88,-88,1096
 -120,-24,1024
 -192,16,1016
 -144,-16,1064
 -112,-72,1128
 -136,-48,1056
 -208,-16,976
 -192,-56,968
 -160,-40,848
 -192,56,864
 -296,168,784
 -136,72,888
 -64,56,1064
 -144,128,1016
 -40,96,1056
 -120,176,936
 -248,176,928
 -168,96,1008
 -288,96,952
 -392,80,920
 -392,72,936
 -400,-32,1056
 -464,-144,1064
 -512,-152,896
 -552,-128,944
 -552,-96,944
 -552,-200,968
 -440,-264,992
 -440,-232,984
 -392,-224,1000
 -432,-232,928
 -360,-320,1096
 -208,-312,1000
 -344,-232,888
 -360,-280,968
 -256,-320,936
 -256,-336,912
 -304,-272,832
 -384,-296,880
 -288,-416,912
 -288,-472,896
 -288,-504,976
 -264,-488,928
 -232,-512,976
 -152,-528,968
 -136,-496,1008
 -160,-416,1016
 -152,-448,960
 -120,-480,1032
 -16,-512,1152
 -72,-440,1048
 -168,-424,1024
 -120,-488,1040
 -96,-520,1008
 -136,-528,992
 -112,-544,1048
 -72,-560,1064
 -72,-528,1048
 -72,-504,1064
 -64,-472,1048
 -64,-480,1040
 -8,-488,1040
 -24,-416,1056
 -80,-392,1056
 -48,-432,1112
 -80,-472,1096
 -64,-480,1024
 -128,-464,1048
 -96,-480,1016
 -80,-512,1056
 -96,-512,1056
 -88,-496,1048
 -104,-440,1048
 -128,-448,1032
 -136,-432,1008
 -184,-456,952
 -136,-480,1000
 -240,-456,1112
 -200,-536,1032
 -168,-616,960
 -128,-664,960
 -128,-624,1008
 -200,-568,1080
 -192,-584,1104
 -184,-640,1000
 -152,-656,1032
 -112,-656,1072
 -64,-632,1032
 -88,-568,1032
 -96,-552,1088
 -40,-600,1184
 -32,-592,1136
 -72,-552,1016
 -96,-536,1048
 -72,-536,1096
 -104,-544,1072
 -104,-552,1056
 -152,-512,1024
 -120,-528,1056
 -144,-512,1024
 -96,-536,1024
 -128,-496,1080
 -120,-496,1088
 -104,-504,1016
 -144,-472,1056
 -96,-472,1072
 -120,-440,1056
 -96,-464,1024
 -56,-472,1040
 -96,-432,1024
 -80,-432,1056
 -80,-432,1032
 -64,-416,1032
 -48,-400,1072
 -32,-392,1040
 -40,-368,1056
 -40,-368,1040
 -16,-360,1064
 -24,-360,1056
 -16,-328,1040
 -48,-304,1056
 -8,-296,1040
 -64,-248,1024
 -40,-272,1024
 -40,-256,1040
 -64,-232,1056
 -64,-208,1024
 -72,-216,1056
 -32,-216,1048
 -72,-184,1080
 -72,-160,1040
 -120,-168,992
 -112,-200,984
 -80,-200,1056
 -88,-152,1040
 -120,-128,1032
 -80,-152,1048
 -88,-128,1000
 -120,-88,1016
 -104,-104,968
 -104,-112,1008
 -96,-128,992
 -96,-72,1024
 -136,-56,1008
 -136,-72,976
 -120,-112,984
 -128,-96,976
 -152,-48,984
 -144,-32,952
 -136,-64,1000
 -128,-88,976
 -152,-64,960
 -176,-48,968
 -168,-64,992
 -152,-96,984
 -160,-88,1000
 -168,-80,992
 -168,-64,984
 -176,-64,1024
 -168,-72,968
 -184,-80,992
 -168,-96,976
 -152,-96,1008
 -168,-88,984
 -144,-64,984
 -160,-48,1016
 -136,-64,1008
 -152,-72,976
 -152,-72,992
 -144,-80,1000
 -144,-64,976
 -176,-48,984
 -144,-56,992
 -152,-56,992
 -144,-56,968
 -168,-56,944
 -176,-72,952
 -160,-64,968
 -160,-40,976
 -160,-48,952
 -120,-72,968
 -96,-32,968
 -120,0,984
 -80,-40,984
 -88,-32,1008
 -120,-16,968
 -112,-32,960
 -88,-32,968
 -128,-24,1048
 -128,-48,1000
 -120,-80,1000
 -88,-72,1000
 -104,-24,1024
 -80,8,968
 -80,8,1040
 -32,-8,1096
 -64,8,1008
 -88,16,960
 -56,8,1008
 -72,24,1024
 -80,16,1040
 -56,0,1016
 -72,16,1032
 -72,24,1016
 -72,16,1032
 -72,24,976
 -80,16,1008
 -72,16,1008
 -80,32,1024
 -80,48,992
 -112,40,976
 -96,16,952
 -96,16,992
 -104,16,984
 -112,40,968
 -72,24,984
 -96,32,920
 -112,48,960
 -112,16,984
 -96,-16,952
 -88,-16,968
 -88,8,976
 -112,8,968
 -80,-16,984
 -80,-8,1008
 -96,8,968
 -96,0,992
 -88,-40,984
 -64,-64,1008
 -72,-16,1016
 -112,8,1032
 -80,-40,992
 -72,-56,984
 -104,-24,1000
 -96,-16,1024
 -96,-8,1000
 -128,-16,1016
 -104,-56,968
 -144,-40,968
 -184,-8,976
 -184,-40,968
 -184,-72,992
 -192,-88,952
 -232,-72,960
 -232,-56,968
 -248,-56,1000
 -256,-72,984
 -296,-64,936
 -344,-56,944
 -344,-72,936
 -400,-56,968
 -448,-64,1000
 -408,-88,992
 -456,-56,960
 -480,-40,944
 -472,-64,968
 -464,-80,936
 -472,-96,984
 -440,-112,984
 -464,-88,1008
 -464,-80,968
 -424,-120,976
 -408,-136,968
 -384,-160,984
 -344,-192,992
 -320,-200,1000
 -296,-192,976
 -296,-184,952
 -272,-208,968
 -232,-232,960
 -192,-232,992
 -176,-224,1008
 -168,-200,976
 -200,-192,1032
 -168,-264,992
 -152,-304,1000
 -176,-296,968
 -176,-296,976
 -176,-304,976
 -128,-344,1064
 -136,-352,1024
 -152,-328,960
 -176,-344,976
 -128,-384,984
 -136,-408,1024
 -128,-400,976
 -136,-360,1008
 -112,-344,976
 -112,-368,1048
 -64,-384,1072
 -32,-336,1056
 -96,-248,1056
 -88,-264,968
 -80,-312,1032
 -120,-304,1056
 -128,-296,1088
 -176,-256,1064
 -248,-280,968
 -224,-352,968
 -208,-384,1016
 -200,-360,1056
 -216,-360,1040
 -192,-400,1064
 -176,-408,1000
 -240,-368,1040
 -256,-360,992
 -240,-400,1016
 -160,-464,1120
 -120,-448,1000
 -152,-376,1016
 -160,-320,992
 -152,-312,1040
 -168,-312,1032
 -192,-296,1000
 -232,-312,1040
 -200,-360,1024
 -168,-352,1016
 -192,-280,1016
 -224,-240,1032
 -208,-272,1032
 -200,-296,968
 -184,-296,1024
 -176,-264,1000
 -184,-240,1008
 -168,-224,1016
 -176,-216,1024
 -184,-224,1056
 -176,-240,1000
 -192,-232,1000
 -184,-224,1008
 -168,-232,1072
 -160,-216,1032
 -168,-200,1024
 -168,-208,1032
 -128,-208,1024
 -152,-192,1032
 -152,-176,1016
 -136,-200,1048
 -120,-200,1040
 -120,-184,1040
 -120,-168,1032
 -112,-160,984
 -104,-176,1064
 -88,-168,1032
 -112,-168,1032
 -96,-168,1000
 -96,-168,1040
 -80,-168,1040
 -96,-144,1016
 -104,-136,1008
 -72,-144,1024
 -88,-120,1024
 -88,-120,1040
 -104,-120,1016
 -96,-128,1032
 -96,-120,1008
 -112,-104,1024
 -88,-112,1024
 -104,-112,1040
 -96,-112,1008
 -96,-104,1016
 -96,-112,1024
 -88,-96,1000
 -96,-96,1008
 -88,-80,1000
 -96,-88,1024
 -72,-96,1016
 -88,-88,1008
 -64,-96,1016
 -80,-80,984
 -64,-80,1000
 -72,-80,992
 -80,-72,984
 -72,-88,1008
 -64,-80,1024
 -80,-64,1000
 -72,-64,1032
 -80,-64,1008
 -80,-56,1040
 -88,-56,1008
 -96,-72,1008
 -80,-72,1016
 -96,-48,1040
 -88,-56,1016
 -96,-48,992
 -120,-48,1008
 -80,-72,1040
 -88,-64,1016
 -104,-40,992
 -112,-24,984
 -96,-56,1008
 -72,-56,1024
 -112,-24,984
 -104,-48,1000
 -88,-56,992
 -104,-32,1016
 -88,-32,1008
 -96,-24,992
 -88,-48,1000
 -80,-32,1000
 -104,0,1008
 -96,-8,1000
 -112,-40,1016
 -80,-40,992
 -128,8,992
 -112,0,1000
 -96,-16,1008
 -96,-24,1000
 -112,0,984
 -120,8,992
 -112,-8,984
 -120,0,984
 -128,0,1000
 -120,0,968
 -136,16,976
 -112,8,984
 -112,8,992
 -120,8,984
 -104,16,968
 -128,16,1000
 -120,8,984
 -112,-8,984
 -112,8,1016
 -120,24,984
 -128,16,976
 -104,8,984
 -112,16,1008
 -112,8,1000
 -128,24,984
 -128,16,992
 -112,8,1000
 -128,16,1000
 -136,32,984
 -128,8,1016
 -112,0,1016
 -120,16,984
 -128,32,976
 -112,32,992
 -112,16,1008
 -112,8,984
 -120,24,968
 -104,24,992
 -104,24,984
 -96,24,1000
 -88,24,968
 -104,40,968
 -96,40,992
 -96,40,1000
 -96,40,1000
 -104,40,976
 -88,24,992
 -104,40,984
 -104,40,968
 -88,40,992
 -88,48,992
 -88,32,1000
 -80,40,976
 -88,72,1000
 -96,64,992
 -88,24,968
 -80,16,976
 -80,56,984
 -88,96,992
 -80,88,984
 -104,72,960
 -96,40,968
 -104,72,968
 -120,88,968
 -96,72,976
 -104,64,960
 -96,64,976
 -104,80,984
 -96,56,1000
 -72,40,1000
 -88,80,960
 -96,96,984
 -72,72,1000
 -80,56,984
 -80,48,976
 -80,56,976
 -72,72,1000
 -80,72,976
 -80,64,976
 -64,48,1000
 -72,72,968
 -64,80,1000
 -48,64,968
 -56,88,976
 -48,120,960
 -64,128,1008
 -48,104,1016
 -56,80,984
 -64,88,976
 -64,96,952
 -56,120,976
 -56,112,976
 -48,96,976
 -32,80,1040
 -56,72,952
 -64,80,912
 -72,80,968
 -64,80,944
 -40,72,1024
 -48,80,1000
 -56,72,1016
 -32,56,976
 -64,72,976
 -80,88,968
 -80,88,1040
 -96,88,1040
 -120,48,1000
 -96,-8,1016
 -96,8,1000
 -120,56,1016
 -128,64,992
 -104,8,968
 -80,8,960
 -128,80,952
 -96,80,1000
 -72,72,1032
 -104,72,976
 -80,40,960
 -72,40,936
 -56,72,1016
 -56,88,984
 -56,48,952
 -24,24,968
 -24,32,1008
 -16,48,992
 -24,56,992
 16,32,1016
 16,48,1024
 0,56,1008
 8,32,968
 8,16,976
 -8,16,952
 8,16,960
 -8,32,936
 -8,40,1000
 -8,32,992
 -40,24,960
 -24,0,984
 -48,0,984
 -48,0,1024
 -72,8,984
 -80,-16,1000
 -80,-32,984
 -120,-8,952
 -104,-40,1000
 -104,-48,1000
 -128,-48,1016
 -144,-16,968
 -184,8,968
 -200,-16,992
 -216,-40,1000
 -256,-40,1000
 -312,8,976
 -376,16,1024
 -416,-8,984
 -448,-32,984
 -472,-48,1016
 -536,-8,984
 -552,0,968
 -576,0,920
 -536,-40,912
 -536,-56,952
 -552,-24,920
 -528,-48,944
 -464,-64,944
 -472,-64,968
 -408,-128,944
 -376,-136,992
 -344,-168,1008
 -280,-200,992
 -288,-216,1032
 -232,-264,1040
 -192,-288,992
 -208,-248,944
 -216,-272,1040
 -144,-320,1048
 -144,-312,1032
 -168,-312,984
 -144,-304,968
 -160,-312,1008
 -112,-344,992
 -120,-352,1008
 -144,-352,1056
 -96,-424,1008
 -88,-376,968
 -160,-312,992
 -136,-320,984
 -160,-368,1048
 -112,-416,1064
 -136,-392,1056
 -160,-368,1000
 -160,-376,1032
 -160,-376,1048
 -136,-408,1080
 -160,-416,1120
 -168,-440,1088
 -168,-472,1096
 -144,-488,1080
 -152,-472,1064
 -208,-432,1032
 -248,-432,960
 -192,-496,968
 -152,-536,1104
 -144,-504,1080
 -160,-440,1072
 -208,-400,1008
 -216,-456,1024
 -216,-488,1000
 -224,-488,968
 -184,-472,1040
 -168,-440,1000
 -168,-416,968
 -152,-416,960
 -160,-424,976
 -136,-432,1040
 -128,-408,1040
 -144,-352,1024
 -160,-352,1032
 -104,-400,1024
 -136,-360,1024
 -152,-328,1016
 -144,-320,1056
 -168,-312,1064
 -152,-344,1064
 -168,-328,1040
 -192,-312,1080
 -152,-336,1056
 -176,-296,1064
 -176,-288,1024
 -176,-272,1032
 -192,-288,1008
 -152,-328,992
 -168,-272,968
 -192,-240,1008
 -128,-264,1008
 -176,-240,992
 -136,-264,1000
 -168,-224,984
 -144,-208,1056
 -168,-200,984
 -176,-232,992
 -144,-264,984
 -152,-224,1024
 -152,-200,1040
 -152,-208,1024
 -128,-224,1064
 -128,-216,1008
 -136,-208,1016
 -120,-208,1016
 -128,-192,1000
 -120,-192,1024
 -120,-208,1000
 -112,-208,1000
 -104,-176,1000
 -112,-152,1048
 -88,-184,992
 -112,-168,984
 -112,-144,976
 -120,-144,1008
 -112,-160,1056
 -112,-168,984
 -128,-152,984
 -104,-160,1008
 -104,-144,1024
 -104,-144,1016
 -96,-136,1000
 -96,-128,1032
 -112,-136,992
 -88,-152,1016
 -96,-120,1000
 -104,-104,1008
 -88,-120,1008
 -120,-112,992
 -104,-136,1008
 -96,-112,1016
 -136,-96,1016
 -112,-120,984
 -136,-112,1000
 -128,-120,1008
 -136,-120,1008
 -136,-120,968
 -136,-128,1008
 -120,-120,1008
 -136,-112,1008
 -120,-144,1000
 -128,-136,992
 -112,-128,1032
 -104,-104,1000
 -120,-104,1000
 -104,-136,1008
 -112,-120,1024
 -96,-112,1024
 -128,-104,1000
 -104,-112,1000
 -120,-112,1008
 -104,-120,1016
 -120,-96,1008
 -128,-104,984
 -104,-120,992
 -112,-80,1016
 -128,-72,992
 -120,-96,992
 -112,-112,1008
 -128,-80,992
 -120,-96,1016
 -104,-96,992
 -120,-72,984
 -104,-72,1008
 -128,-64,1000
 -104,-96,1000
 -112,-72,1000
 -128,-56,1000
 -112,-80,1000
 -104,-72,1008
 -120,-56,992
 -120,-64,968
 -120,-72,1000
 -112,-64,1016
 -120,-40,1016
 -144,-32,984
 -112,-64,992
 -128,-48,984
 -136,-40,1000
 -112,-64,1024
 -120,-48,1000
 -144,-24,968
 -120,-48,984
 -112,-56,1016
 -120,-40,984
 -128,-32,984
 -112,-32,992
 -120,-16,976
 -128,-16,992
 -128,-32,992
 -120,-48,1024
 -136,-24,960
 -152,-8,984
 -120,-32,1000
 -136,-32,1008
 -120,-40,1008
 -144,-16,976
 -136,-24,984
 -112,-32,1024
 -128,-8,1000
 -128,-16,1000
 -112,-8,1000
 -136,0,968
 -128,-16,968
 -128,-16,992
 -120,-24,1000
 -136,0,1000
 -120,-8,992
 -128,0,968
 -136,0,968
 -112,-16,976
 -120,0,1008
 -128,16,1000
 -128,8,1000
 -120,-8,976
 -136,8,968
 -120,0,992
 -120,0,1008
 -104,8,992
 -128,16,960
 -112,8,1000
 -96,16,1016
 -128,32,960
 -128,16,960
 -104,0,992
 -128,16,1008
 -128,16,1008
 -120,16,968
 -128,16,976
 -112,16,984
 -120,32,984
 -120,16,984
 -112,8,976
 -120,16,984
 -112,24,960
 -128,32,976
 -112,16,992
 -120,8,992
 -104,16,1000
 -120,24,1008
 -96,8,992
 -104,24,984
 -104,40,992
 -96,24,992
 -96,8,1008
 -80,8,1000
 -104,32,976
 -104,32,968
 -88,16,976
 -80,24,984
 -96,40,992
 -80,24,984
 -88,24,992
 -80,24,968
 -80,48,976
 -88,48,976
 -64,24,992
 -80,24,1000
 -80,24,968
 -80,24,1008
 -72,24,992
 -88,40,1016
 -72,24,984
 -72,16,992
 -64,32,992
 -80,64,1008
 -72,40,976
 -56,16,992
 -64,32,984
 -56,48,1000
 -56,56,992
 -72,40,976
 -56,16,984
 -64,40,992
 -72,56,976
 -56,32,984
 -64,48,976
 -72,64,1008
 -56,40,992
 -72,40,976
 -72,40,952
 -56,32,1016
 -56,56,1008
 -88,64,952
 -72,32,968
 -56,24,992
 -64,48,976
 -56,48,968
 -24,32,976
 -40,56,984
 -40,56,984
 -32,40,1024
 -40,32,968
 -48,48,984
 -56,56,992
 -40,40,1024
 -48,40,1016
 -64,32,976
 -64,24,984
 -64,32,984
 -32,32,992
 -56,72,984
 -64,64,976
 -24,24,984
 -48,64,976
 -72,88,984
 -48,64,992
 -40,40,992
 -72,56,960
 -80,56,984
 -72,56,1016
 -80,56,984
 -104,80,984
 -88,72,1016
 -104,88,1000
 -104,112,992
 -136,128,960
 -104,112,976
 -96,112,936
 -104,128,936
 -80,120,928
 -72,96,896
 -80,112,944
 -56,104,1000
 -32,120,1000
 -80,144,968
 -80,144,968
 -96,144,920
 -72,136,976
 -88,160,976
 -104,168,960
 -80,112,1080
 -32,104,976
 -80,120,944
 -80,128,968
 -48,56,1008
 8,40,1016
 -40,120,1056
 -80,128,1104
 -64,40,1080
 -72,24,976
 -112,88,904
 -144,112,992
 -48,48,1048
 16,48,1072
 -56,136,992
 -56,176,968
 -16,160,1016
 -64,128,1080
 -40,88,1016
 -96,96,1048
 -96,120,1000
 -168,152,928
 -136,120,976
 -112,104,952
 -104,128,912
 -184,152,976
 -88,88,984
 -80,64,928
 -88,48,984
 -112,80,1056
 -40,80,1024
 0,128,1152
 -64,176,1248
 -64,128,1168
 -48,96,1160
 -40,160,1016
 -160,264,976
 -224,296,944
 -128,272,856
 -96,280,952
 -160,304,904
 -200,312,832
 -232,280,672
 -192,232,512
 -96,264,1032
 -224,400,776
 -88,264,1120
 -104,192,848
 -200,232,944
 -216,288,896
 -248,280,936
 -160,232,936
 -200,256,952
 -168,304,856
 -168,360,936
 -160,368,800
 -200,392,832
 -160,352,832
 -96,304,840
 -120,336,880
 -160,344,856
 -136,320,936
 -160,320,952
 -200,288,952
 -224,224,936
 -168,136,960
 -112,96,856
 -192,168,832
 -128,232,816
 -192,264,744
 -120,288,568
 -224,328,656
 -256,280,536
 -224,208,552
 -112,160,736
 -208,192,664
 -208,184,800
 -136,136,1000
 -96,96,944
 -144,144,1016
 -144,112,1032
 -104,88,1000
 -184,40,1016
 -32,-32,992
 -80,24,1056
 -184,104,1096
 -88,88,888
 -96,0,1048
 -64,-16,1000
 -80,-24,1048
 -104,24,848
 -144,-8,1136
 72,-16,1096
 120,24,1128
 -176,112,1112
 -112,80,1000
 8,16,1024
 16,24,1040
 -72,88,1016
 8,56,1144
 -16,8,1160
 120,-40,1192
 120,-24,1168
 -32,-32,1168
 24,-112,1064
 120,-152,1032
 40,-72,992
 -40,-24,936
 32,-48,992
 72,-80,1016
 96,-96,968
 40,-64,1024
 64,-56,1080
 -8,-40,1104
 72,-112,1160
 120,-128,952
 40,-80,872
 8,-56,848
 32,-88,976
 136,-112,1056
 104,-96,1112
 72,-48,1072
 40,-8,960
 64,-80,840
 96,-128,976
 120,-160,1160
 168,-88,904
 104,-104,1016
 48,-144,952
 80,-144,960
 112,-96,992
 88,-96,936
 0,-112,816
 88,-120,1112
 56,-128,944
 -16,-32,712
 -40,40,1016
 -24,152,1168
 0,168,1096
 112,192,1088
 160,168,800
 -24,216,856
 32,232,1000
 128,272,1040
 -8,144,856
 -96,112,848
 128,336,1176
 24,264,928
 -104,192,1024
 0,200,944
 120,280,928
 -104,104,992
 104,272,832
 56,208,984
 96,240,928
 64,208,912
 120,280,856
 48,248,976
 -80,192,1024
 -96,136,944
 -8,144,856
 -32,312,1040
 -32,224,896
 -40,216,960
 -32,216,960
 -48,192,960
 -16,240,944
 -32,208,960
 -32,216,960
 -40,232,936
 -40,184,968
 -24,216,960
 -32,216,952
 -32,208,960
 -32,216,952
 -32,216,960
 -32,208,952
 -32,216,952
 -32,216,952
 -32,216,952
 -32,216,952
 -32,216,952
 -32,216,952
 -32,216,952
 -32,216,952
 -32,216,960
 -32,216,952
 -32,216,952
 -32,216,952
 -32,216,960
 -32,216,952
 -32,216,952
 -32,216,952
 -32,216,960
 -32,216,952
 -32,216,952
 -32,216,952
 -32,216,952
 -32,216,952
 -32,216,952
 -32,208,952
 -32,216,952
 -32,216,952
 -32,208,952
 -32,216,960
 -32,216,952
 -32,216,952
 -32,216,960
 -32,208,952
 -32,216,952
 -32,216,952
 -32,216,952
 -32,216,952
 -32,216,952
 -32,216,960
 -32,216,952
 -32,216,952
 -32,216,952
 -32,216,960
 -32,208,960
 -32,216,952
 -32,216,952
 -32,216,952
 -32,216,952
 -32,216,952
 -32,216,960
 -32,216,952
 -32,216,952
 -32,216,952
 -32,216,952
 -32,216,952
 -32,216,952
 -32,216,952
 -32,216,952
 -32,216,960
 -32,216,952
 -32,216,960
 -32,216,960
 -32,216,960
 -32,216,952
 -32,216,952
 -32,216,952
 -32,208,952
 -32,216,952
 -32,216,952
 -32,208,960
 -32,216,960
 -32,216,952
 -32,216,960
 -32,216,952
 -32,216,952
 -32,216,952
 -32,216,960
 -32,216,960
 -32,208,960
 -32,216,960
 -32,208,952
 -32,216,952
 -32,216,952
 -32,216,960
 -32,216,960
 -32,208,952
 -32,216,952
 -32,216,960
 -32,216,952
 -32,216,952
 -32,216,960
 -32,216,952
 -32,216,952
 -32,208,960
 -32,216,952
 -32,208,952
 -32,216,960
 -56,248,1000
 -96,224,1104
 -64,56,984
 104,-40,1328
 -48,40,960
 -152,80,856
 0,0,896
 64,-88,1016
 -64,-64,1080
 -216,-32,888
 -104,-136,912
 -144,-312,928
 -96,-224,1184
 -336,-160,832
 -144,-192,832
 -168,-152,808
 -232,-192,800
 -168,-216,1048
 -280,-128,944
 -224,-120,1008
 -192,-144,992
 -232,-120,1016
 -192,-120,976
 -184,-112,992
 -208,-128,944
 -208,-160,1048
 -192,-112,992
 -224,-72,952
 -176,-144,944
 -176,-136,1000
 -232,-96,992
 -232,-80,960
 -200,-144,944
 -200,-128,992
 -232,-88,928
 -208,-56,944
 -200,-136,984
 -208,-144,1000
 -224,-88,984
 -280,-72,1032
 -176,-32,920
 -184,-104,952
 -224,-104,1000
 -208,-80,984
 -224,-104,960
 -192,-80,984
 -264,-72,976
 -184,-88,984
 -200,-64,968
 -208,-48,952
 -232,-32,784
 -296,-248,1280
 -208,112,912
 -304,72,960
 -208,48,952
 -248,96,936
 -272,112,920
 -192,144,1000
 -272,104,1024
 -424,24,904
 -312,-104,952
 -304,-152,1160
 -176,16,976
 -208,112,848
 -168,8,848
 -168,-104,1048
 -200,-56,1048
 -112,80,792
 -144,40,736
 -112,-72,1152
 -80,-40,1224
 -88,80,896
 -80,-16,1024
 -80,56,1024
 0,16,896
 -112,-24,1064
 -144,32,928
 -48,40,928
 -96,24,848
 -8,8,920
 64,88,888
 -32,168,1224
 -40,16,864
 80,72,864
 0,120,1040
 -40,152,1120
 -56,96,992
 -40,40,936
 -40,32,920
 -40,48,976
 -32,64,1008
 -40,48,984
 -32,48,976
 -32,56,992
 -32,48,984
 -32,48,984
 -32,56,992
 -32,48,984
 -32,48,984
 -32,48,984
 -32,48,992
 -32,48,984
 -40,48,984
 -32,48,984
 -32,48,984
 -32,48,984
 -32,48,984
 -32,48,984
 -32,48,984
 -40,48,984
 -32,48,984
 -32,48,984
 -32,48,984
 -32,48,984
 -32,48,984
 -32,48,992
 -32,48,984
 -32,48,984
 -32,48,984
 -32,56,984
 -32,48,984
 -32,48,984
 -32,48,992
 -32,56,984
 -32,48,984
 -32,48,984
 -32,48,984
 -32,48,992
 -32,48,984
 -32,48,984
 -32,48,984
 -40,48,984
 -40,48,984
 -40,48,984
 -32,48,984
 -32,48,984
 -32,48,984
 -32,48,984
 -32,48,984
 -32,48,984
 -32,48,984
 -32,48,984
 -32,48,984
 -32,56,984
 -32,48,984
 -32,48,984
 -32,48,984
 -32,56,984
 -32,48,984
 -32,48,984
 -32,48,984
 -32,48,984
 -32,48,984
 -32,48,984
 -32,48,984
 -32,48,984
 -32,48,984
 -32,56,984
 -32,48,984
 -32,48,984
 -32,48,984
 -32,56,984
 -32,56,984
 -32,48,984
 -32,48,984
 -32,56,984
 -32,56,984
 -32,48,984
 -32,48,984
 -32,56,984
 -32,48,984
 -32,48,984
 -32,48,984
 -32,48,984
 -32,56,984
 -32,48,984
 -32,48,984
 -32,48,984
 -32,48,984
 -32,48,984
 -32,56,992
 -40,56,984
 -32,48,976
 -32,48,992
 -32,48,984
 -32,56,984
 -32,56,984
 -32,48,984
 -32,48,984
 -32,56,984
 -32,48,992
 -32,48,984
 -32,56,984
 -32,48,984
 -32,48,984
 -32,56,984
 -32,48,984
 -32,48,984
 -32,56,984
 -32,48,984
 -40,48,984
 -32,56,992
 -32,48,984
 -32,48,984
 -32,56,992
 -32,56,984
 -32,48,984
 -32,56,984
 -32,56,984
 -32,56,984
 -32,48,984
 -32,48,984
 -32,56,984
 -32,48,984
 -32,48,992
 -32,56,984
 -32,48,984
 -32,56,984
 -32,48,992
 -32,56,984
 -40,56,984
 -32,48,984
 -32,56,984
 -32,56,984
 -32,56,984
 -32,48,984
 -32,56,984
 -32,56,984
 -32,48,984
 -40,48,992
 -32,56,984
 -32,56,984
 -32,56,992
 -32,48,984
 -40,48,984
 -32,56,984
 -32,56,984
 -32,48,984
 -32,56,984
 -32,56,992
 -32,56,984
 -32,48,984
 -32,56,992
 -32,56,984
 -32,48,984
 -32,56,992
 -32,56,984
 -32,56,984
 -32,56,984
 -32,48,984
 -32,56,984
 -32,56,984
 -32,48,984
 -32,56,984
 -32,56,984
 -32,56,984
 -32,56,984
 -32,48,984
 -32,56,992
 -32,56,984
 -32,48,984
 -32,56,984
 -32,56,984
 -32,56,984
 -32,56,984
 -32,56,984
 -32,56,992
 -32,56,984
 -32,56,984
 -32,56,984
 -32,56,984
 -32,56,984
 -32,56,984
 -32,48,984
 -32,56,984
 -32,56,984
 -32,48,984
 -32,56,992
 -40,56,984
 -32,48,984
 -32,56,992
 -32,56,984
 -32,48,984
 -32,56,984
 -32,56,984
 -32,56,984
 -32,56,992
 -32,56,984
 -32,56,984
 -32,56,984
 -32,48,984
 -32,56,984
 -32,56,984
 -32,56,984
 -40,56,984
 -32,56,984
 -32,56,992
 -32,56,984
 -32,48,984
 -32,56,984
 -32,48,984
 -32,48,984
 -32,56,984
 -32,56,984
 -32,56,984
 -32,56,984
 -32,56,984
 -32,56,984
 -32,56,984
 -32,56,984
 -32,56,984
 -32,56,984
 -32,56,984
 -32,56,984
 -32,56,984
 -32,56,984
 -32,56,984
 -32,56,984
 -32,56,984
 -32,56,984
 -32,56,984
 -32,48,984
 -32,56,984
 -32,56,984
 -32,48,984
 -32,56,984
 -32,56,992
 -32,56,976
 -32,56,984
 -32,56,992
 -40,56,984
 -32,56,984
 -32,56,984
 -32,56,992
 -32,56,984
 -32,56,984
 -32,56,984
 -32,56,984
 -32,56,984
 -32,56,984
 -32,56,984
 -32,56,984
 -32,56,984
 -32,56,992
 -32,56,984
 -32,48,984
 -32,56,984
 -32,56,984
 -32,56,984
 -32,56,984
 -32,56,984
 -32,56,984
 -32,56,984
 -32,56,984
 -32,56,984
 -32,56,984
 -32,56,984
 -32,56,984
 -32,56,984
 -32,56,984
 -32,56,984
 -32,56,984
 -32,56,984
 -32,48,984
 -32,56,984
 -32,56,984
 -32,48,984
 -40,56,984
 -32,56,992
 -32,48,984
 -32,56,984
 -32,56,992
 -40,56,984
 -40,56,992
 -40,48,984
 -40,48,984
 -32,56,992
 -32,56,984
 -32,48,984
 -32,56,992
 -32,56,984
 -32,56,984
 -32,56,984
 -40,56,984
 -40,56,984
 -40,56,984
 -32,56,984
 -32,56,984
 -32,56,984
 -32,56,984
 -32,56,992
 -32,56,984
 -32,56,984
 -32,56,984
 -32,56,984
 -32,56,984
 -32,56,984
 -32,56,984
 -32,56,984
 -32,56,984
 -32,56,984
 -32,56,984
 -32,48,984
 -32,56,984
 -40,56,992
 -32,56,984
 -32,56,992
 -32,48,984
 -32,56,984
 -32,56,992
 -32,56,984
 -32,56,984
 -32,56,992
 -32,56,984
 -32,56,984
 -32,56,984
 -32,56,984
 -32,56,984
 -32,56,984
 -32,56,984
 -32,56,992
 -32,56,984
 -32,56,984
 -32,56,992
 -32,56,984
 -32,56,984
 -40,56,984
 -32,56,984
 -32,56,984
 -32,56,984
 -32,56,984
 -32,56,984
 -32,56,984
 -32,56,984
 -32,56,984
 -32,56,984
 -32,48,984
 -32,56,984
 -32,56,984
 -32,56,984
 -32,56,984
 -32,56,984
 -32,56,984
 -32,56,984
 -40,56,992
 -32,56,984
 -32,56,984
 -32,56,984
 -32,56,984
 -32,56,984
 -32,56,984
 -40,48,992
 -32,56,984
 -32,56,984
 -32,48,984
 -32,56,984
 -32,56,984
 -32,56,984
 -32,56,984
 -32,56,984
 -32,56,984
 -32,56,984
 -32,56,984
 -32,56,984
 -32,56,984
 -32,56,984
 -32,56,984
 -32,56,992
 -32,56,984
 -32,56,984
 -32,56,984
 -32,56,984
 -32,56,984
 -32,56,984
 -32,56,984
 -32,56,984
 -32,56,984
 -32,56,984
 -32,56,984
 -32,56,984
 -32,56,984
 -32,56,984
 -32,56,984
 -32,56,984
 -32,56,984
 -32,56,984
 -32,56,984
 -32,56,984
 -40,56,984
 -32,56,984
 -32,56,984
 -32,56,984
 -32,56,984
 -32,56,984
 -32,56,984
 -32,56,984
 -32,56,984
 -32,56,984
 -32,56,984
 -32,56,984
 -32,56,984
 -32,56,984
 -32,56,984
 -32,56,984
 -32,56,984
 -32,56,984
 -32,56,992
 -32,56,984
 -32,56,984
 -32,56,984
 -32,56,984
 -32,56,984
 -32,56,984
 -32,56,984
 -32,56,984
 -32,56,984
 -32,56,984
 -32,56,984
 -32,56,984
 -32,56,984
 -32,56,984
 -32,56,984
 -32,56,984
 -32,56,984
 -32,56,984
 -32,56,984
 -32,56,984
 -32,56,984
 -32,56,984
 -32,56,984
 -32,56,984
 -32,56,984
 -32,56,984
 -32,56,984
 -32,56,984
 -32,56,984
 -32,56,984
 -32,56,984
 -32,56,984
 -32,56,984
 -32,56,984
 -32,56,984
 -32,56,984
 -32,56,984
 -32,56,984
 -32,56,984
 -32,56,984
 -32,56,984
 -32,56,984
 -32,56,984
 -32,56,984
 -32,56,984
 -32,56,984
 -32,56,984
 -32,56,984
 -32,56,984
 -32,56,984
 -32,56,984
 -32,56,984
 -32,56,992
 -32,56,984
 -32,56,984
 -32,56,984
 -32,56,984
 -32,56,984
 -32,56,984
 -32,56,984
 -32,56,984
 -32,56,984
 -32,56,984
 -32,56,984
 -32,56,984
 -32,56,984
 -32,56,984
 -32,56,984
 -32,56,984
 -32,56,984
 -32,56,984
 -32,56,984
 -32,56,984
 -32,56,992
 -32,56,984
 -32,56,984
 -32,56,984
 -32,56,984
 -32,56,984
 -32,56,984
 -32,56,984
 -32,56,984
 -32,56,984
 -32,56,984
 -32,56,984
 -32,56,984
 -32,56,984
 -32,56,984
 -32,56,984
 -32,56,984
 -32,56,984
 -32,56,984
 -32,56,984
 -32,56,984
 -32,56,984
 -32,56,984
 -32,56,984
 -32,56,992
 -32,56,984
 -32,56,984
 -32,56,984
 -32,56,984
 -32,56,984
 -32,56,984
 -32,56,984
 -32,56,984
 -32,56,984
 -32,56,992
 -32,56,984
 -40,56,992
 -32,56,984
 -32,56,984
 -40,56,992
