3625, 3952, 4099
3642, 3961, 4102
3659, 3970, 4104
3674, 3978, 4106
3688, 3986, 4106
3701, 3992, 4107
3714, 3999, 4108
3729, 4007, 4109
3742, 4014, 4109
3755, 4021, 4110
3766, 4029, 4110
3780, 4035, 4110
3791, 4042, 4109
3800, 4048, 4109
3809, 4052, 4109
3818, 4058, 4108
3827, 4064, 4108
3835, 4068, 4107
3844, 4073, 4106
3853, 4079, 4105
3861, 4083, 4105
3870, 4089, 4103
3876, 4095, 4102
3883, 4096, 4102
3891, 4100, 4101
3897, 4105, 4098
3903, 4109, 4098
3910, 4113, 4096
3917, 4117, 4096
3924, 4121, 4096
3930, 4125, 4096
3935, 4128, 4096
3941, 4132, 4096
3947, 4136, 4094
3953, 4139, 4092
3958, 4143, 4091
3965, 4146, 4089
3970, 4149, 4088
3976, 4153, 4087
3981, 4156, 4086
3986, 4160, 4085
3991, 4162, 4083
3995, 4165, 4083
4000, 4167, 4083
4005, 4171, 4081
4010, 4173, 4080
4013, 4176, 4079
4017, 4178, 4079
4021, 4180, 4078
4025, 4183, 4077
4028, 4185, 4076
4032, 4187, 4076
4036, 4189, 4074
4039, 4192, 4073
4042, 4194, 4072
4046, 4196, 4071
4048, 4197, 4071
4051, 4200, 4070
4055, 4202, 4069
4058, 4204, 4067
4061, 4206, 4067
4064, 4206, 4065
4066, 4209, 4065
4068, 4210, 4064
4071, 4212, 4063
4074, 4213, 4062
4077, 4214, 4061
4078, 4216, 4060
4080, 4218, 4059
4083, 4219, 4058
4085, 4220, 4057
4087, 4222, 4056
4090, 4223, 4056
4092, 4225, 4055
4096, 4225, 4053
4096, 4227, 4052
4096, 4227, 4052
4096, 4229, 4051
4100, 4230, 4049
4101, 4231, 4048
4104, 4233, 4047
4105, 4234, 4046
4107, 4235, 4045
4109, 4236, 4044
4111, 4237, 4043
4112, 4238, 4042
4113, 4238, 4041
4114, 4239, 4040
4116, 4240, 4040
4117, 4241, 4039
4118, 4242, 4038
4119, 4243, 4037
4121, 4243, 4036
4122, 4244, 4035
4123, 4245, 4034
4125, 4246, 4034
4126, 4246, 4032
4127, 4247, 4032
4127, 4249, 4031
4129, 4250, 4030
4130, 4250, 4029
4131, 4251, 4028
4133, 4251, 4028
4133, 4252, 4027
4136, 4253, 4026
4136, 4253, 4026
4137, 4255, 4025
4139, 4255, 4024
4139, 4256, 4024
4140, 4256, 4022
4142, 4257, 4022
4142, 4258, 4021
4143, 4258, 4021
4144, 4259, 4020
4144, 4259, 4020
4146, 4260, 4018
4147, 4261, 4018
4147, 4262, 4018
4148, 4262, 4018
4148, 4262, 4016
4149, 4263, 4015
4149, 4264, 4015
4150, 4264, 4015
4151, 4264, 4014
4152, 4265, 4014
4152, 4266, 4013
4152, 4266, 4012
4152, 4266, 4012
4151, 4266, 4011
4151, 4267, 4010
4151, 4267, 4010
4150, 4267, 4009
4150, 4266, 4009
4148, 4267, 4008
4148, 4268, 4008
4147, 4268, 4007
4147, 4268, 4007
4147, 4268, 4006
4146, 4268, 4005
4147, 4269, 4005
4147, 4269, 4005
4147, 4270, 4004
4146, 4269, 4004
4146, 4270, 4002
4146, 4270, 4002
4146, 4270, 4002
4146, 4271, 4002
4145, 4271, 4001
4145, 4271, 4001
4145, 4272, 4001
4145, 4272, 4000
4145, 4272, 4000
4146, 4272, 3999
4145, 4273, 3998
4145, 4272, 3999
4145, 4273, 3998
4144, 4274, 3998
4145, 4274, 3997
4144, 4274, 3997
4144, 4274, 3997
4144, 4275, 3997
4145, 4276, 3996
4144, 4276, 3996
4144, 4276, 3996
4143, 4276, 3996
4144, 4276, 3995
4143, 4277, 3995
4143, 4277, 3995
4143, 4277, 3994
4143, 4278, 3995
4143, 4278, 3994
4142, 4278, 3994
4142, 4278, 3994
4143, 4278, 3994
4142, 4279, 3994
4142, 4279, 3994
4142, 4280, 3994
4142, 4279, 3993
4143, 4279, 3993
4142, 4280, 3993
4141, 4280, 3993
4141, 4281, 3992
4141, 4281, 3992
4141, 4281, 3992
4141, 4282, 3991
4141, 4281, 3992
4141, 4282, 3991
4141, 4282, 3991
4140, 4282, 3991
4139, 4282, 3991
4139, 4283, 3990
4139, 4282, 3989
4138, 4283, 3990
4138, 4283, 3989
4138, 4283, 3988
4136, 4283, 3988
4136, 4283, 3988
4136, 4283, 3988
4136, 4283, 3987
4136, 4283, 3987
4135, 4284, 3986
4135, 4283, 3985
4134, 4284, 3985
4134, 4284, 3985
4133, 4284, 3984
4133, 4284, 3983
4133, 4284, 3984
4133, 4284, 3983
4133, 4284, 3982
4132, 4284, 3982
4131, 4284, 3982
4132, 4284, 3981
4131, 4284, 3980
4131, 4284, 3980
4130, 4284, 3979
4130, 4284, 3979
4129, 4285, 3977
4130, 4285, 3977
4130, 4285, 3976
4130, 4285, 3977
4131, 4285, 3975
4131, 4286, 3975
4131, 4285, 3974
4131, 4285, 3974
4131, 4285, 3973
4130, 4285, 3971
4131, 4286, 3972
4130, 4285, 3970
4130, 4286, 3970
4130, 4285, 3969
4130, 4285, 3968
4129, 4285, 3967
4128, 4285, 3968
4127, 4285, 3966
4127, 4285, 3966
4127, 4285, 3965
4126, 4284, 3964
4125, 4284, 3963
4124, 4284, 3963
4124, 4284, 3962
4122, 4284, 3961
4122, 4283, 3960
4121, 4283, 3959
4120, 4283, 3958
4119, 4284, 3957
4117, 4283, 3957
4117, 4283, 3955
4115, 4282, 3954
4114, 4281, 3953
4113, 4282, 3952
4112, 4282, 3950
4111, 4281, 3949
4110, 4281, 3948
4108, 4281, 3948
4107, 4280, 3947
4106, 4280, 3946
4104, 4280, 3945
4102, 4280, 3943
4100, 4279, 3942
4100, 4279, 3940
4096, 4279, 3939
4096, 4278, 3939
4096, 4278, 3937
4094, 4278, 3936
4091, 4278, 3935
4088, 4277, 3934
4086, 4277, 3933
4084, 4276, 3931
4083, 4276, 3931
4080, 4276, 3928
4077, 4275, 3927
4074, 4274, 3926
4072, 4274, 3924
4069, 4274, 3923
4066, 4272, 3922
4064, 4272, 3920
4060, 4272, 3919
4058, 4272, 3918
4055, 4271, 3916
4052, 4271, 3916
4048, 4270, 3914
4045, 4270, 3913
4042, 4269, 3912
4038, 4268, 3910
4034, 4268, 3910
4031, 4267, 3908
4027, 4266, 3907
4022, 4266, 3906
4018, 4265, 3905
4013, 4264, 3904
4008, 4263, 3902
4003, 4262, 3901
3998, 4261, 3901
3992, 4260, 3898
3985, 4259, 3898
3980, 4259, 3897
3973, 4257, 3896
3966, 4255, 3895
3959, 4254, 3893
3951, 4253, 3893
3944, 4252, 3893
3937, 4250, 3891
3928, 4249, 3891
3920, 4247, 3891
3911, 4246, 3890
3901, 4243, 3889
3889, 4241, 3889
3880, 4238, 3888
3869, 4237, 3888
3858, 4234, 3888
3845, 4231, 3889
3834, 4228, 3888
3821, 4226, 3889
3807, 4222, 3889
3792, 4219, 3890
3779, 4215, 3891
3765, 4213, 3892
3750, 4209, 3894
3733, 4205, 3896
3715, 4201, 3898
3698, 4196, 3901
3679, 4191, 3904
3658, 4186, 3908
3640, 4181, 3911
3622, 4177, 3915
3602, 4171, 3919
3579, 4165, 3925
3559, 4159, 3930
3536, 4152, 3937
3511, 4145, 3945
3484, 4138, 3954
3459, 4129, 3961
3435, 4122, 3970
3407, 4113, 3981
3377, 4103, 3993
3348, 4096, 4006
3316, 4084, 4019
3282, 4072, 4036
3246, 4060, 4054
3212, 4046, 4073
3179, 4034, 4093
3141, 4019, 4114
3099, 4002, 4141
3057, 3985, 4169
3012, 3966, 4199
2964, 3945, 4235
2918, 3922, 4273
2876, 3902, 4309
2832, 3881, 4347
2784, 3857, 4392
2737, 3830, 4440
2690, 3804, 4490
2639, 3774, 4546
2587, 3742, 4610
2538, 3708, 4677
2489, 3675, 4741
2440, 3641, 4812
2391, 3601, 4893
2342, 3560, 4980
2294, 3518, 5067
2244, 3470, 5167
2197, 3419, 5278
2154, 3368, 5387
2112, 3318, 5494
2073, 3264, 5613
2039, 3202, 5747
2006, 3139, 5886
1976, 3075, 6027
1952, 3004, 6180
1943, 2935, 6330
1939, 2873, 6464
1935, 2811, 6594
1941, 2744, 6631
1969, 2678, 6547
1998, 2616, 6654
2029, 2550, 6062
2086, 2484, 5465
2163, 2427, 5713
2233, 2376, 5337
2310, 2323, 5086
2425, 2276, 4925
2558, 2238, 5131
2686, 2200, 6134
2835, 2162, 6918
3023, 2138, 7567
3207, 2123, 7859
3380, 2104, 8020
3580, 2089, 8073
3815, 2091, 8108
4050, 2098, 8134
4282, 2101, 8160
4529, 2114, 8169
4764, 2142, 8151
4966, 2170, 7959
5164, 2190, 5976
5371, 2224, 4747
5557, 2273, 4355
5729, 2317, 4223
5910, 2360, 4118
6073, 2419, 4026
6199, 2485, 3952
6318, 2541, 3901
6438, 2598, 3859
6535, 2672, 3813
6606, 2750, 3803
6681, 2821, 3876
6755, 2897, 3887
6796, 2983, 3963
6818, 3062, 4038
6850, 3134, 4026
6875, 3210, 4164
6871, 3294, 4074
6854, 3375, 4150
6850, 3450, 5376
6836, 3524, 5662
6796, 3593, 6052
6758, 3649, 5982
6731, 3705, 5851
6694, 3759, 5707
6636, 3809, 5560
6584, 3855, 5431
6539, 3901, 5306
6481, 3943, 5180
6415, 3979, 5065
6356, 4011, 4967
6308, 4043, 4875
6244, 4073, 4780
6174, 4096, 4693
6112, 4122, 4617
6054, 4145, 4541
5987, 4166, 4468
5920, 4182, 4408
5864, 4197, 4355
5811, 4213, 4302
5746, 4227, 4250
5680, 4238, 4204
5623, 4249, 4161
5566, 4259, 4120
5509, 4268, 4085
5458, 4272, 4056
5414, 4278, 4031
5370, 4284, 4005
5322, 4289, 3982
5278, 4292, 3963
5236, 4296, 3944
5194, 4300, 3924
5152, 4301, 3910
5115, 4303, 3897
5082, 4305, 3884
5048, 4307, 3872
5012, 4308, 3862
4981, 4308, 3854
4950, 4309, 3845
4919, 4309, 3836
4889, 4309, 3831
4863, 4309, 3826
4839, 4310, 3820
4814, 4309, 3815
4787, 4309, 3812
4764, 4307, 3809
4742, 4307, 3806
4719, 4307, 3803
4699, 4305, 3801
4682, 4304, 3799
4666, 4304, 3799
4648, 4303, 3798
4633, 4301, 3797
4617, 4301, 3797
4602, 4300, 3797
4587, 4299, 3797
4573, 4298, 3797
4561, 4296, 3798
4550, 4296, 3798
4536, 4294, 3798
4523, 4293, 3801
4512, 4291, 3802
4501, 4291, 3802
4488, 4289, 3804
4477, 4287, 3805
4468, 4286, 3806
4459, 4285, 3808
4450, 4284, 3809
4440, 4281, 3811
4431, 4281, 3812
4422, 4279, 3815
4414, 4278, 3816
4408, 4276, 3818
4401, 4275, 3821
4395, 4274, 3821
4389, 4274, 3823
4384, 4273, 3825
4378, 4272, 3827
4372, 4271, 3828
4368, 4270, 3830
4362, 4269, 3832
4358, 4268, 3834
4355, 4268, 3835
4350, 4266, 3838
4346, 4265, 3839
4343, 4265, 3841
4340, 4263, 3842
4334, 4262, 3844
4332, 4262, 3847
4329, 4261, 3848
4326, 4260, 3850
4323, 4259, 3852
4320, 4258, 3854
4318, 4257, 3856
4315, 4256, 3857
4312, 4255, 3860
4310, 4255, 3861
4308, 4254, 3863
4306, 4254, 3865
4304, 4252, 3867
4302, 4252, 3868
4301, 4251, 3871
4299, 4250, 3872
4298, 4249, 3874
4297, 4248, 3876
4295, 4247, 3877
4295, 4247, 3878
4294, 4246, 3880
4292, 4245, 3882
4291, 4244, 3884
4291, 4243, 3885
4290, 4243, 3887
4290, 4242, 3888
4289, 4241, 3890
4288, 4241, 3892
4288, 4240, 3893
4287, 4238, 3894
4286, 4237, 3896
4286, 4237, 3898
4285, 4236, 3899
4285, 4235, 3900
4285, 4234, 3902
4284, 4233, 3903
4285, 4232, 3905
4284, 4231, 3907
4285, 4230, 3908
4285, 4230, 3909
4285, 4229, 3910
4286, 4228, 3912
4287, 4227, 3914
4287, 4226, 3914
4288, 4226, 3916
4288, 4224, 3917
4289, 4223, 3918
4290, 4223, 3919
4290, 4222, 3921
4291, 4221, 3922
4293, 4220, 3924
4294, 4219, 3925
4295, 4218, 3927
4297, 4217, 3927
4299, 4217, 3929
4301, 4216, 3930
4304, 4215, 3931
4306, 4214, 3933
4309, 4213, 3935
4312, 4213, 3936
4315, 4211, 3937
4318, 4211, 3938
4320, 4210, 3940
4323, 4209, 3941
4325, 4209, 3942
4328, 4208, 3944
4330, 4207, 3944
4334, 4206, 3946
4337, 4205, 3947
4339, 4203, 3948
4342, 4203, 3950
4345, 4202, 3950
4348, 4201, 3952
4351, 4200, 3953
4354, 4199, 3955
4357, 4198, 3955
4362, 4197, 3957
4365, 4195, 3958
4369, 4195, 3958
4372, 4193, 3960
4376, 4192, 3960
4380, 4191, 3962
4385, 4189, 3963
4390, 4188, 3965
4395, 4187, 3965
4400, 4185, 3966
4405, 4184, 3967
4410, 4183, 3968
4414, 4182, 3969
4418, 4180, 3969
4424, 4179, 3970
4430, 4178, 3971
4434, 4177, 3972
4440, 4175, 3972
4447, 4173, 3973
4454, 4172, 3974
4459, 4170, 3974
4465, 4169, 3974
4471, 4168, 3976
4478, 4166, 3975
4485, 4165, 3976
4492, 4163, 3976
4499, 4162, 3977
4507, 4160, 3977
4516, 4157, 3977
4523, 4156, 3977
4531, 4154, 3978
4539, 4153, 3978
4549, 4151, 3977
4559, 4148, 3977
4569, 4146, 3978
4580, 4145, 3977
4591, 4142, 3976
4603, 4141, 3976
4615, 4138, 3976
4625, 4136, 3975
4635, 4135, 3974
4647, 4133, 3973
4659, 4131, 3972
4671, 4129, 3971
4682, 4126, 3970
4695, 4124, 3969
4710, 4122, 3968
4724, 4119, 3965
4738, 4116, 3963
4751, 4114, 3963
4764, 4112, 3960
4780, 4110, 3957
4796, 4107, 3955
4812, 4103, 3951
4827, 4100, 3949
4846, 4096, 3945
4865, 4096, 3940
4884, 4092, 3936
4900, 4089, 3930
4917, 4086, 3927
4935, 4081, 3921
4956, 4078, 3915
4979, 4074, 3908
5002, 4069, 3901
5026, 4065, 3893
5052, 4060, 3884
5078, 4056, 3874
5101, 4052, 3865
5123, 4048, 3857
5147, 4045, 3847
5173, 4041, 3836
5200, 4036, 3824
5226, 4032, 3813
5253, 4027, 3801
5283, 4023, 3786
5315, 4018, 3770
5346, 4013, 3754
5374, 4008, 3739
5404, 4004, 3723
5436, 3999, 3706
5469, 3993, 3686
5504, 3988, 3664
5537, 3983, 3643
5573, 3977, 3621
5614, 3971, 3594
5653, 3964, 3565
5693, 3958, 3537
5730, 3952, 3510
5767, 3946, 3480
5809, 3940, 3446
5855, 3932, 3407
5902, 3924, 3366
5950, 3917, 3323
6000, 3907, 3275
6053, 3898, 3221
6104, 3890, 3168
6148, 3882, 3121
6190, 3874, 3072
6234, 3865, 3019
6283, 3856, 2961
6329, 3847, 2900
6374, 3838, 2840
6420, 3829, 2775
6470, 3818, 2699
6521, 3807, 2620
6569, 3795, 2542
6613, 3784, 2467
6656, 3774, 2390
6701, 3763, 2306
6748, 3750, 2214
6794, 3736, 2119
6834, 3723, 2030
6878, 3708, 1935
6922, 3694, 2400
6963, 3677, 2928
7002, 3661, 4174
7034, 3647, 4131
7067, 3630, 4203
7099, 3613, 4157
7132, 3592, 4141
7159, 3573, 4135
7183, 3551, 4174
7205, 3528, 4152
7220, 3505, 4205
7230, 3482, 4303
7236, 3460, 4375
7238, 3440, 4375
7234, 3418, 4445
7227, 3395, 4487
7211, 3371, 4463
7194, 3349, 4434
7171, 3324, 4425
7138, 3299, 4389
7095, 3276, 4365
7052, 3247, 4335
7002, 3225, 4302
6946, 3204, 4268
6883, 3179, 4230
6806, 3154, 4184
6717, 3131, 4138
6631, 3106, 4088
6531, 3080, 4030
6407, 3056, 3957
6274, 3032, 3875
6148, 3004, 3790
6018, 2982, 3701
5874, 2958, 3587
5712, 2930, 3451
5527, 2904, 3263
5336, 2877, 3038
5145, 2848, 2770
4932, 2816, 2406
4709, 2790, 1887
4505, 2762, 1219
4327, 2734, 780
4148, 2712, 1065
3958, 2686, 1660
3762, 2658, 2105
3574, 2633, 2486
3398, 2609, 2756
3210, 2579, 2996
3019, 2554, 3205
2839, 2531, 3379
2676, 2503, 3517
2533, 2482, 3622
2394, 2464, 3713
2255, 2442, 3805
2117, 2420, 3889
1996, 2407, 3958
1888, 2389, 4016
1777, 2369, 4074
1677, 2363, 4131
1589, 2356, 4181
1513, 2344, 4221
1452, 2341, 4258
1395, 2341, 4296
1340, 2341, 4330
1294, 2344, 4368
1260, 2355, 4400
1229, 2364, 4428
1207, 2377, 4441
1197, 2398, 4381
1193, 2418, 4388
1190, 2431, 4317
1194, 2451, 4250
1206, 2478, 4195
1219, 2501, 4169
1236, 2526, 4153
1259, 2554, 4153
1283, 2581, 4175
1314, 2613, 4072
1351, 2649, 4054
1384, 2679, 3512
1417, 2706, 3159
1455, 2738, 2023
1497, 2772, 2363
1541, 2805, 2081
1586, 2839, 2187
1631, 2870, 2288
1678, 2902, 2393
1731, 2937, 2497
1784, 2973, 2595
1831, 3002, 2680
1875, 3029, 2758
1926, 3059, 2838
1980, 3093, 2920
2036, 3126, 3002
2089, 3156, 3075
2144, 3188, 3146
2198, 3219, 3217
2254, 3249, 3281
2303, 3277, 3336
2344, 3298, 3382
2386, 3321, 3427
2431, 3345, 3471
2478, 3370, 3514
2520, 3392, 3553
2561, 3413, 3589
2606, 3436, 3626
2651, 3460, 3662
2695, 3481, 3695
2732, 3502, 3723
2770, 3520, 3750
2807, 3538, 3775
2845, 3557, 3799
2885, 3577, 3824
2921, 3596, 3846
2956, 3613, 3866
2993, 3631, 3886
3030, 3651, 3905
3064, 3667, 3922
3093, 3682, 3937
3124, 3697, 3952
3156, 3713, 3966
3189, 3730, 3980
3220, 3745, 3992
3251, 3760, 4005
3281, 3776, 4016
3312, 3790, 4026
3339, 3804, 4035
3361, 3815, 4042
3384, 3826, 4050
3406, 3838, 4057
3429, 3849, 4062
3451, 3861, 4068
3470, 3871, 4073
3492, 3882, 4078
3513, 3893, 4082
3533, 3903, 4086
3550, 3912, 4091
3568, 3920, 4096
3584, 3931, 4096
3602, 3939, 4096
3619, 3949, 4099
3634, 3956, 4102
3650, 3965, 4104
3667, 3974, 4105
3682, 3981, 4107
3695, 3988, 4108
3707, 3996, 4109
3721, 4003, 4109
3734, 4011, 4109
3749, 4018, 4110
3760, 4025, 4110
3774, 4032, 4110
3785, 4039, 4110
3795, 4045, 4109
3805, 4050, 4109
3814, 4055, 4109
3824, 4061, 4108
3832, 4066, 4107
3841, 4071, 4107
3850, 4076, 4106
3858, 4083, 4105
3867, 4087, 4104
3874, 4091, 4103
3881, 4096, 4102
3888, 4099, 4101
3897, 4103, 4100
3903, 4108, 4098
3910, 4112, 4097
3917, 4117, 4096
3925, 4121, 4096
3932, 4125, 4096
3938, 4129, 4096
3945, 4133, 4096
3952, 4137, 4096
3958, 4141, 4094
3965, 4144, 4092
3970, 4148, 4091
3977, 4151, 4089
3982, 4155, 4088
3986, 4157, 4088
3991, 4161, 4087
3995, 4163, 4086
4000, 4166, 4085
4004, 4169, 4083
4008, 4172, 4082
4012, 4174, 4081
4016, 4177, 4081
4020, 4179, 4080
4024, 4181, 4078
4027, 4183, 4077
4031, 4186, 4077
4035, 4189, 4076
4038, 4191, 4075
4041, 4193, 4074
4045, 4195, 4073
4047, 4196, 4072
4050, 4198, 4071
4054, 4200, 4070
4057, 4203, 4069
4060, 4205, 4068
4064, 4207, 4066
4066, 4208, 4065
4069, 4210, 4064
4071, 4211, 4064
4073, 4213, 4062
4076, 4214, 4061
4078, 4215, 4060
4080, 4217, 4059
4084, 4219, 4059
4086, 4220, 4057
4088, 4221, 4056
4089, 4223, 4055
4092, 4224, 4054
4096, 4225, 4053
4096, 4227, 4052
4096, 4228, 4051
4098, 4229, 4050
4101, 4231, 4049
4104, 4232, 4048
4106, 4233, 4047
4108, 4234, 4046
4110, 4235, 4045
4113, 4237, 4044
4114, 4238, 4044
4116, 4239, 4043
4118, 4240, 4042
4120, 4240, 4041
4121, 4242, 4040
4124, 4243, 4040
4125, 4244, 4039
4127, 4245, 4038
4130, 4247, 4036
4131, 4247, 4036
4132, 4249, 4035
4133, 4249, 4035
4134, 4250, 4034
4135, 4250, 4033
4135, 4252, 4032
4136, 4252, 4031
4136, 4253, 4030
4136, 4253, 4029
4136, 4253, 4028
4135, 4253, 4028
4136, 4253, 4027
4136, 4254, 4026
4136, 4255, 4025
4137, 4255, 4024
4137, 4256, 4023
4137, 4255, 4023
4138, 4255, 4022
4137, 4256, 4021
4138, 4257, 4020
4138, 4257, 4019
4139, 4258, 4019
4139, 4258, 4018
4140, 4259, 4017
4140, 4260, 4017
4141, 4259, 4016
4140, 4260, 4015
4141, 4260, 4014
4142, 4261, 4014
4141, 4261, 4013
4142, 4261, 4013
4142, 4262, 4012
4142, 4262, 4011
4143, 4262, 4011
4143, 4263, 4010
4143, 4263, 4010
4143, 4264, 4010
4143, 4264, 4009
4143, 4264, 4009
4144, 4265, 4008
4144, 4265, 4008
4144, 4265, 4007
4144, 4265, 4007
4144, 4266, 4006
4143, 4266, 4006
4144, 4266, 4006
4144, 4267, 4006
4144, 4267, 4005
4144, 4267, 4005
4143, 4268, 4004
4144, 4268, 4004
4143, 4268, 4004
4143, 4268, 4003
4142, 4268, 4003
4142, 4269, 4003
4142, 4269, 4002
4141, 4269, 4001
4141, 4269, 4001
4141, 4269, 4000
4139, 4269, 4001
4140, 4270, 4000
4139, 4270, 4000
4139, 4270, 4000
4138, 4271, 3999
4137, 4270, 3998
4137, 4271, 3999
4137, 4271, 3998
4137, 4271, 3998
4136, 4271, 3997
4136, 4272, 3997
4135, 4272, 3997
4136, 4271, 3997
4135, 4272, 3996
4135, 4273, 3996
4135, 4273, 3996
4134, 4273, 3996
4135, 4274, 3995
4135, 4273, 3995
4137, 4275, 3995
4138, 4275, 3995
4138, 4276, 3995
4138, 4277, 3994
4140, 4277, 3995
4139, 4277, 3994
4140, 4278, 3994
4140, 4277, 3994
4140, 4279, 3994
4140, 4279, 3994
4140, 4279, 3993
4140, 4279, 3993
4141, 4280, 3993
4141, 4280, 3992
4141, 4280, 3992
4141, 4281, 3992
4141, 4281, 3992
4141, 4281, 3992
4140, 4281, 3991
4140, 4282, 3991
4140, 4282, 3991
4141, 4282, 3991
4141, 4282, 3991
4141, 4283, 3989
4140, 4283, 3990
4140, 4283, 3990
4141, 4284, 3989
4140, 4284, 3989
4140, 4284, 3988
4140, 4284, 3987
4140, 4285, 3986
4141, 4284, 3986
4140, 4285, 3986
4140, 4285, 3985
4139, 4285, 3985
4140, 4286, 3985
4139, 4286, 3983
4140, 4286, 3983
4140, 4286, 3983
4140, 4286, 3982
4139, 4286, 3981
4140, 4287, 3981
4139, 4286, 3980
4139, 4287, 3980
4139, 4287, 3979
4139, 4287, 3978
4139, 4287, 3977
4139, 4287, 3978
4140, 4287, 3976
4139, 4288, 3976
4139, 4287, 3975
4140, 4288, 3975
4140, 4288, 3974
4140, 4288, 3973
4140, 4289, 3972
4139, 4288, 3972
4140, 4288, 3971
4140, 4289, 3970
4139, 4288, 3969
4139, 4288, 3969
4139, 4289, 3969
4139, 4289, 3968
4138, 4289, 3967
4138, 4289, 3966
4137, 4289, 3965
4137, 4288, 3964
4135, 4289, 3963
4134, 4288, 3963
4133, 4289, 3962
4132, 4287, 3961
4129, 4287, 3960
4128, 4286, 3958
4127, 4286, 3958
4124, 4286, 3957
4122, 4285, 3956
4122, 4285, 3955
4119, 4285, 3953
4118, 4283, 3952
4116, 4283, 3951
4115, 4282, 3949
4112, 4283, 3949
4112, 4282, 3948
4110, 4282, 3947
4108, 4282, 3946
4107, 4281, 3944
4105, 4281, 3943
4103, 4281, 3942
4101, 4280, 3940
4100, 4280, 3940
4096, 4280, 3939
4096, 4279, 3937
4096, 4278, 3936
4096, 4278, 3936
4091, 4278, 3934
4089, 4278, 3932
4087, 4278, 3931
4083, 4276, 3931
4082, 4276, 3929
4080, 4275, 3928
4076, 4275, 3927
4074, 4274, 3925
4071, 4274, 3925
4068, 4273, 3924
4064, 4272, 3921
4061, 4272, 3921
4058, 4271, 3920
4055, 4271, 3919
4051, 4270, 3918
4049, 4269, 3916
4045, 4269, 3915
4040, 4268, 3914
4036, 4268, 3913
4033, 4267, 3912
4028, 4266, 3910
4024, 4265, 3910
4019, 4264, 3908
4014, 4263, 3906
4009, 4262, 3906
4003, 4261, 3904
3997, 4260, 3903
3992, 4258, 3902
3985, 4258, 3901
3979, 4256, 3900
3972, 4255, 3898
3965, 4254, 3897
3957, 4253, 3896
3949, 4250, 3894
3941, 4249, 3893
3934, 4247, 3893
3927, 4246, 3892
3918, 4243, 3891
3909, 4242, 3891
3901, 4240, 3890
3892, 4238, 3889
3882, 4237, 3888
3872, 4234, 3888
3862, 4232, 3888
3852, 4230, 3887
3842, 4228, 3888
3831, 4225, 3888
3820, 4223, 3888
3809, 4220, 3889
3796, 4218, 3890
3782, 4215, 3891
3769, 4211, 3892
3756, 4209, 3894
3740, 4205, 3895
3723, 4200, 3898
3707, 4196, 3900
3688, 4192, 3904
3668, 4187, 3907
3647, 4181, 3911
3630, 4176, 3915
3611, 4172, 3919
3589, 4166, 3924
3568, 4160, 3929
3546, 4154, 3936
3523, 4147, 3943
3496, 4139, 3951
3470, 4131, 3960
3445, 4124, 3968
3419, 4116, 3978
3390, 4106, 3989
3360, 4096, 4002
3330, 4088, 4015
3298, 4076, 4029
3263, 4063, 4047
3228, 4051, 4067
3194, 4038, 4084
3159, 4025, 4104
3120, 4009, 4127
3077, 3991, 4156
3034, 3974, 4185
2989, 3954, 4218
2939, 3932, 4255
2894, 3911, 4293
2853, 3891, 4328
2809, 3868, 4368
2762, 3843, 4415
2716, 3817, 4463
2669, 3792, 4512
2619, 3761, 4570
2569, 3728, 4635
2522, 3696, 4700
2475, 3665, 4762
2428, 3630, 4835
2380, 3589, 4916
2332, 3548, 5003
2284, 3507, 5092
2236, 3460, 5192
2190, 3408, 5304
2150, 3358, 5410
2111, 3310, 5516
2073, 3256, 5634
2039, 3194, 5768
2010, 3133, 5904
1982, 3070, 6044
1961, 3001, 6193
1953, 2934, 6339
1949, 2874, 6469
1945, 2815, 6594
1953, 2752, 6434
1978, 2689, 6545
2005, 2629, 6448
2035, 2567, 6102
2084, 2503, 5767
2156, 2449, 5395
2222, 2397, 5442
2291, 2346, 5156
2390, 2301, 5243
2512, 2261, 5315
2631, 2222, 5633
2761, 2185, 6179
2926, 2156, 7294
3106, 2137, 7822
3271, 2120, 7984
3441, 2102, 8037
3644, 2095, 8081
3870, 2097, 8113
4087, 2100, 8141
4310, 2104, 8163
4547, 2121, 8166
4769, 2146, 8150
4958, 2168, 7900
5144, 2188, 6005
5336, 2223, 4874
5520, 2265, 4386
5686, 2303, 4254
5853, 2344, 4150
6013, 2399, 4056
6148, 2460, 3974
6269, 2513, 3921
6381, 2566, 3865
6480, 2633, 3825
6564, 2706, 3821
6640, 2774, 3794
6710, 2844, 3883
6766, 2924, 3874
6802, 3006, 4015
6829, 3079, 3989
6860, 3147, 4046
6872, 3224, 4131
6867, 3305, 4107
6861, 3380, 4468
6854, 3453, 5052
6831, 3526, 5455
6795, 3592, 6059
6764, 3648, 5995
6738, 3700, 5868
6699, 3753, 5728
6644, 3801, 5585
6596, 3845, 5460
6553, 3890, 5339
6496, 3932, 5214
6430, 3969, 5097
6374, 4001, 5000
6327, 4031, 4911
6266, 4061, 4820
6199, 4087, 4730
6136, 4110, 4653
6082, 4133, 4580
6017, 4154, 4507
5948, 4172, 4440
5891, 4187, 4385
5839, 4203, 4335
5781, 4216, 4284
5715, 4228, 4235
5655, 4238, 4192
5601, 4250, 4150
5544, 4259, 4112
5488, 4265, 4079
5440, 4271, 4053
5399, 4277, 4028
5354, 4282, 4003
5308, 4286, 3982
5267, 4289, 3963
5229, 4293, 3945
5188, 4297, 3927
5146, 4299, 3912
5113, 4300, 3899
5081, 4303, 3887
5048, 4304, 3876
5012, 4305, 3866
4982, 4305, 3858
4953, 4306, 3849
4922, 4307, 3841
4891, 4306, 3835
4866, 4307, 3829
4843, 4306, 3825
4817, 4307, 3819
4792, 4305, 3816
4767, 4305, 3813
4744, 4305, 3809
4721, 4304, 3806
4700, 4302, 3805
4681, 4301, 3803
4665, 4301, 3803
4648, 4300, 3800
4631, 4298, 3799
4616, 4298, 3799
4600, 4296, 3799
4586, 4296, 3799
4571, 4294, 3799
4558, 4293, 3800
4545, 4292, 3800
4534, 4292, 3800
4522, 4289, 3801
4510, 4289, 3802
4500, 4288, 3804
4490, 4287, 3804
4479, 4286, 3805
4469, 4284, 3807
4461, 4283, 3808
4452, 4283, 3809
4444, 4281, 3811
4434, 4280, 3813
4427, 4279, 3814
4419, 4277, 3816
4411, 4277, 3817
4405, 4275, 3821
4400, 4274, 3821
4394, 4274, 3823
4388, 4273, 3825
4383, 4272, 3827
4378, 4271, 3829
4374, 4271, 3831
4369, 4270, 3832
4366, 4269, 3835
4363, 4268, 3836
4358, 4267, 3837
4355, 4267, 3841
4352, 4266, 3842
4348, 4266, 3844
4346, 4265, 3845
4342, 4265, 3847
4339, 4263, 3849
4336, 4263, 3852
4334, 4262, 3853
4332, 4261, 3855
4329, 4261, 3857
4327, 4260, 3859
4325, 4259, 3860
4322, 4259, 3862
4319, 4258, 3864
4317, 4256, 3866
4315, 4256, 3867
4312, 4255, 3868
4309, 4254, 3870
4306, 4252, 3871
4305, 4252, 3873
4302, 4251, 3874
4301, 4250, 3876
4299, 4249, 3878
4298, 4248, 3879
4296, 4247, 3881
4296, 4247, 3882
4294, 4246, 3883
4294, 4245, 3885
4293, 4245, 3886
4291, 4244, 3888
4292, 4243, 3889
4290, 4243, 3891
4290, 4241, 3893
4290, 4240, 3894
4289, 4239, 3895
4289, 4239, 3896
4290, 4238, 3898
4289, 4237, 3900
4289, 4237, 3902
4289, 4235, 3903
4290, 4235, 3904
4290, 4234, 3905
4291, 4234, 3907
4290, 4232, 3908
4291, 4232, 3910
4291, 4231, 3912
4292, 4230, 3913
4293, 4229, 3914
4294, 4228, 3916
4295, 4228, 3917
4295, 4227, 3919
4296, 4226, 3920
4297, 4225, 3921
4299, 4225, 3923
4300, 4224, 3924
4300, 4223, 3925
4302, 4222, 3927
4304, 4222, 3928
4304, 4220, 3929
4306, 4219, 3931
4308, 4218, 3932
4309, 4217, 3934
4310, 4215, 3935
4313, 4214, 3936
4314, 4213, 3938
4316, 4212, 3939
4317, 4211, 3940
4319, 4210, 3942
4320, 4209, 3942
4323, 4208, 3944
4325, 4207, 3945
4327, 4206, 3946
4330, 4205, 3946
4332, 4203, 3948
4335, 4202, 3949
4337, 4201, 3950
4340, 4200, 3952
4343, 4199, 3953
4346, 4197, 3954
4348, 4196, 3955
4353, 4195, 3956
4357, 4194, 3958
4360, 4192, 3958
4365, 4192, 3959
4369, 4190, 3961
4374, 4189, 3962
4380, 4188, 3963
4386, 4188, 3964
4392, 4186, 3966
4399, 4184, 3967
4404, 4183, 3968
4408, 4181, 3969
4415, 4181, 3970
4420, 4179, 3971
4426, 4178, 3972
4432, 4176, 3972
4437, 4174, 3974
4444, 4174, 3975
4452, 4171, 3975
4458, 4169, 3976
4465, 4168, 3977
4471, 4166, 3977
4478, 4165, 3978
4486, 4163, 3978
4493, 4161, 3979
4502, 4159, 3980
4511, 4158, 3980
4521, 4155, 3980
4528, 4153, 3980
4537, 4152, 3981
4547, 4150, 3980
4557, 4147, 3980
4568, 4145, 3980
4579, 4143, 3979
4591, 4140, 3980
4604, 4137, 3979
4615, 4136, 3978
4628, 4134, 3977
4639, 4131, 3976
4651, 4128, 3975
4666, 4126, 3973
4677, 4124, 3972
4691, 4121, 3970
4707, 4118, 3968
4723, 4115, 3966
4738, 4112, 3964
4753, 4110, 3961
4769, 4107, 3959
4785, 4103, 3956
4804, 4099, 3953
4822, 4096, 3949
4841, 4096, 3945
4863, 4092, 3940
4885, 4088, 3935
4905, 4084, 3930
4925, 4081, 3925
4949, 4077, 3919
4975, 4074, 3911
4999, 4069, 3903
5027, 4066, 3895
5055, 4061, 3885
5084, 4057, 3875
5111, 4052, 3866
5136, 4048, 3856
5162, 4044, 3846
5191, 4040, 3834
5221, 4035, 3822
5249, 4031, 3809
5279, 4027, 3795
5313, 4021, 3779
5347, 4016, 3761
5379, 4011, 3744
5409, 4006, 3727
5441, 4001, 3709
5475, 3995, 3688
5512, 3989, 3666
5547, 3983, 3644
5583, 3977, 3619
5624, 3971, 3591
5667, 3964, 3560
5707, 3957, 3531
5744, 3950, 3502
5784, 3945, 3470
5830, 3937, 3433
5878, 3928, 3391
5926, 3921, 3348
5975, 3913, 3302
6028, 3904, 3250
6081, 3895, 3194
6132, 3885, 3140
6174, 3877, 3092
6220, 3869, 3039
6266, 3861, 2982
6316, 3850, 2918
6363, 3842, 2855
6408, 3833, 2791
6459, 3821, 2719
6511, 3810, 2639
6560, 3798, 2557
6608, 3787, 2479
6651, 3777, 2402
6695, 3766, 2319
6742, 3753, 2230
6788, 3739, 2132
6831, 3726, 2040
6874, 3712, 1946
6919, 3697, 2246
6961, 3681, 3192
7001, 3664, 3992
7037, 3649, 4128
7068, 3633, 4190
7101, 3615, 4142
7132, 3595, 4150
7161, 3575, 4125
7186, 3553, 4180
7208, 3530, 4189
7225, 3507, 4234
7235, 3484, 4298
7240, 3462, 4319
7242, 3441, 4467
7238, 3419, 4442
7229, 3396, 4454
7216, 3373, 4456
7196, 3351, 4442
7174, 3326, 4425
7141, 3299, 4398
7096, 3277, 4367
7052, 3250, 4334
7003, 3226, 4300
6945, 3205, 4268
6883, 3180, 4230
6806, 3154, 4186
6717, 3131, 4138
6628, 3107, 4088
6532, 3081, 4031
6411, 3056, 3961
6278, 3033, 3881
6148, 3005, 3793
6019, 2981, 3702
5879, 2959, 3595
5723, 2932, 3462
5545, 2904, 3282
5352, 2879, 3059
5163, 2851, 2803
4958, 2819, 2455
4735, 2792, 1951
4522, 2766, 1297
4337, 2737, 773
4162, 2713, 1020
3979, 2689, 1606
3786, 2662, 2058
3594, 2636, 2453
3420, 2613, 2731
3244, 2585, 2956
3054, 2557, 3171
2874, 2535, 3346
2707, 2510, 3492
2560, 2485, 3601
2426, 2468, 3694
2291, 2447, 3782
2156, 2426, 3867
2028, 2410, 3941
1919, 2396, 4001
1812, 2377, 4055
1707, 2363, 4112
1616, 2358, 4166
1535, 2348, 4210
1469, 2340, 4247
1411, 2340, 4283
1359, 2342, 4317
1307, 2341, 4353
1268, 2349, 4387
1239, 2362, 4416
1213, 2371, 4442
1196, 2388, 4405
1193, 2413, 4379
1190, 2429, 4385
1190, 2444, 4262
1200, 2469, 4280
1215, 2496, 4206
1231, 2519, 4160
1250, 2546, 4160
1275, 2574, 4172
1303, 2603, 4106
1337, 2637, 3934
1373, 2671, 3886
1406, 2699, 3455
1440, 2729, 2157
1479, 2759, 2333
1522, 2792, 2043
1567, 2825, 2153
1612, 2858, 2254
1657, 2888, 2355
1709, 2923, 2461
1764, 2960, 2565
1814, 2992, 2656
1861, 3021, 2738
1909, 3050, 2818
1963, 3083, 2899
2018, 3116, 2982
2075, 3148, 3060
2130, 3180, 3132
2187, 3212, 3203
2246, 3244, 3272
2300, 3275, 3331
2346, 3299, 3380
2389, 3321, 3425
2435, 3346, 3471
2482, 3371, 3514
2527, 3394, 3555
2568, 3415, 3591
2612, 3439, 3628
2658, 3462, 3665
2701, 3485, 3698
2740, 3504, 3727
2776, 3522, 3753
2812, 3541, 3778
2850, 3560, 3803
2890, 3580, 3827
2925, 3597, 3848
2960, 3615, 3869
2996, 3632, 3889
3033, 3652, 3909
3068, 3669, 3925
3098, 3684, 3941
3128, 3698, 3955
3160, 3715, 3968
3194, 3731, 3982
3225, 3747, 3995
3257, 3762, 4007
3288, 3779, 4019
3318, 3793, 4029
3345, 3807, 4038
3367, 3819, 4045
3389, 3829, 4052
3412, 3841, 4058
3436, 3853, 4064
3456, 3863, 4069
3476, 3873, 4074
3497, 3885, 4079
3518, 3896, 4083
3538, 3905, 4087
3554, 3915, 4091
3571, 3922, 4096
3588, 3932, 4096
3605, 3941, 4096
3622, 3949, 4101
3635, 3957, 4102
3652, 3966, 4105
3668, 3974, 4106
3683, 3982, 4107
3696, 3989, 4108
3710, 3996, 4109
3722, 4003, 4109
3736, 4011, 4110
3750, 4018, 4110
3762, 4025, 4111
3774, 4032, 4111
3786, 4039, 4111
3796, 4045, 4110
3806, 4050, 4111
3815, 4056, 4110
3824, 4061, 4109
3834, 4066, 4108
3842, 4071, 4107
3850, 4076, 4106
3859, 4081, 4106
3867, 4087, 4105
3874, 4091, 4105
3882, 4096, 4104
3888, 4097, 4102
3895, 4103, 4101
3901, 4107, 4100
3909, 4111, 4098
3915, 4116, 4096
3922, 4119, 4096
3929, 4124, 4096
3935, 4126, 4096
3939, 4130, 4096
3946, 4134, 4096
3952, 4138, 4096
3958, 4142, 4093
3965, 4145, 4091
3971, 4149, 4089
3978, 4153, 4088
3982, 4157, 4088
3988, 4158, 4086
3992, 4162, 4086
3997, 4165, 4084
4001, 4167, 4084
4006, 4170, 4082
4010, 4173, 4081
4015, 4176, 4081
4018, 4178, 4081
4022, 4181, 4079
4026, 4182, 4078
4030, 4185, 4077
4033, 4187, 4076
4037, 4190, 4075
4040, 4192, 4074
4043, 4194, 4073
4047, 4196, 4073
4050, 4199, 4072
4053, 4200, 4071
4057, 4202, 4070
4059, 4204, 4068
4063, 4206, 4067
4065, 4208, 4066
4068, 4210, 4065
4071, 4211, 4065
4072, 4213, 4064
4075, 4214, 4062
4077, 4215, 4061
4080, 4216, 4061
4083, 4218, 4060
4085, 4220, 4058
4086, 4222, 4058
4089, 4223, 4056
4091, 4224, 4054
4096, 4225, 4053
4096, 4226, 4053
4096, 4228, 4052
4098, 4229, 4050
4100, 4230, 4050
4102, 4231, 4048
4104, 4232, 4048
4106, 4234, 4047
4108, 4235, 4046
4110, 4236, 4045
4112, 4237, 4044
4114, 4238, 4042
4116, 4240, 4042
4118, 4240, 4041
4120, 4242, 4040
4122, 4243, 4040
4123, 4243, 4039
4124, 4245, 4038
4126, 4245, 4037
4128, 4246, 4036
4129, 4247, 4036
4130, 4248, 4035
4132, 4248, 4034
4134, 4250, 4033
4134, 4250, 4032
4135, 4251, 4032
4137, 4252, 4031
4138, 4254, 4031
4138, 4254, 4030
4140, 4254, 4029
4140, 4255, 4028
4141, 4256, 4027
4141, 4255, 4026
4141, 4256, 4026
4141, 4256, 4025
4140, 4257, 4024
4140, 4257, 4024
4140, 4257, 4023
4140, 4258, 4022
4140, 4258, 4020
4140, 4258, 4020
4140, 4259, 4019
4140, 4259, 4019
4140, 4259, 4018
4141, 4259, 4018
4141, 4260, 4016
4141, 4260, 4016
4141, 4261, 4015
4142, 4261, 4015
4142, 4261, 4014
4142, 4262, 4013
4143, 4263, 4013
4142, 4263, 4012
4143, 4263, 4011
4142, 4264, 4010
4143, 4264, 4010
4144, 4265, 4010
4143, 4265, 4009
4144, 4265, 4009
4144, 4265, 4007
4144, 4265, 4007
4143, 4266, 4007
4144, 4266, 4007
4144, 4267, 4006
4144, 4267, 4006
4144, 4267, 4006
4144, 4268, 4005
4144, 4268, 4005
4144, 4267, 4005
4144, 4268, 4004
4144, 4268, 4005
4144, 4269, 4004
4143, 4269, 4004
4144, 4269, 4003
4144, 4270, 4003
4143, 4270, 4003
4143, 4270, 4002
4143, 4270, 4002
4143, 4271, 4002
4143, 4271, 4001
4141, 4271, 4001
4142, 4271, 4001
4141, 4271, 4000
4141, 4272, 4000
4140, 4272, 4000
4139, 4273, 3999
4140, 4272, 3999
4139, 4272, 3998
4138, 4272, 3999
4138, 4273, 3998
4138, 4273, 3998
4137, 4273, 3998
4136, 4273, 3997
4136, 4273, 3997
4136, 4274, 3996
4135, 4274, 3996
4135, 4274, 3996
4135, 4275, 3996
4134, 4274, 3995
4133, 4275, 3995
4134, 4275, 3995
4133, 4275, 3994
4133, 4275, 3994
4134, 4276, 3994
4134, 4276, 3993
4135, 4277, 3994
4136, 4278, 3993
4137, 4278, 3993
4137, 4278, 3993
4137, 4280, 3993
4138, 4279, 3993
4138, 4280, 3992
4138, 4280, 3992
4140, 4281, 3992
4139, 4281, 3991
4139, 4281, 3992
4139, 4282, 3992
4140, 4281, 3991
4140, 4282, 3991
4140, 4282, 3991
4140, 4283, 3991
4139, 4283, 3990
4139, 4283, 3990
4140, 4283, 3989
4140, 4284, 3989
4139, 4284, 3989
4140, 4284, 3988
4140, 4284, 3988
4139, 4284, 3987
4139, 4285, 3986
4138, 4285, 3987
4139, 4285, 3986
4139, 4285, 3986
4139, 4285, 3986
4138, 4285, 3985
4139, 4285, 3984
4139, 4286, 3984
4139, 4286, 3983
4139, 4286, 3982
4138, 4286, 3981
4137, 4286, 3981
4138, 4286, 3980
4137, 4286, 3979
4137, 4286, 3979
4136, 4287, 3978
4136, 4287, 3977
4136, 4287, 3976
4136, 4287, 3975
4136, 4286, 3975
4136, 4286, 3974
4134, 4286, 3972
4135, 4287, 3972
4134, 4286, 3971
4134, 4287, 3972
4135, 4286, 3970
4135, 4286, 3970
4134, 4287, 3968
4134, 4287, 3968
4133, 4286, 3967
4133, 4287, 3966
4133, 4287, 3966
4132, 4287, 3965
4132, 4287, 3964
4132, 4287, 3963
4131, 4286, 3962
4131, 4287, 3961
4130, 4287, 3960
4130, 4286, 3959
4129, 4287, 3958
4128, 4286, 3958
4128, 4286, 3956
4127, 4286, 3955
4126, 4286, 3954
4124, 4285, 3953
4124, 4285, 3951
4122, 4285, 3951
4120, 4285, 3950
4118, 4285, 3949
4116, 4284, 3947
4114, 4283, 3947
4111, 4282, 3945
4108, 4282, 3944
4106, 4281, 3943
4104, 4281, 3941
4101, 4281, 3941
4096, 4280, 3939
4096, 4279, 3938
4096, 4279, 3936
4096, 4279, 3936
4091, 4278, 3933
4088, 4277, 3933
4085, 4277, 3931
4084, 4276, 3931
4081, 4276, 3928
4078, 4275, 3928
4074, 4274, 3926
4072, 4274, 3925
4068, 4273, 3923
4065, 4273, 3921
4061, 4272, 3920
4059, 4271, 3919
4055, 4271, 3918
4051, 4270, 3916
4047, 4269, 3915
4044, 4269, 3914
4040, 4268, 3913
4036, 4267, 3911
4031, 4267, 3910
4028, 4266, 3909
4023, 4265, 3908
4018, 4264, 3906
4012, 4263, 3905
4007, 4263, 3904
4001, 4261, 3902
3995, 4260, 3901
3990, 4259, 3900
3984, 4258, 3900
3976, 4256, 3899
3970, 4255, 3898
3963, 4254, 3896
3955, 4252, 3895
3947, 4250, 3895
3939, 4249, 3894
3932, 4248, 3893
3924, 4246, 3892
3915, 4244, 3891
3906, 4243, 3891
3896, 4240, 3891
3886, 4239, 3890
3875, 4236, 3890
3865, 4234, 3889
3856, 4231, 3889
3844, 4229, 3889
3831, 4226, 3889
3819, 4224, 3890
3807, 4221, 3891
3791, 4217, 3891
3776, 4214, 3892
3763, 4210, 3894
3749, 4208, 3895
3732, 4204, 3896
3715, 4199, 3899
3697, 4195, 3901
3678, 4189, 3904
3657, 4184, 3907
3636, 4178, 3912
3618, 4174, 3915
3599, 4169, 3920
3577, 4162, 3925
3554, 4157, 3931
3532, 4150, 3937
3508, 4143, 3944
3481, 4135, 3952
3455, 4127, 3960
3430, 4120, 3970
3404, 4112, 3980
3375, 4102, 3992
3346, 4095, 4006
3315, 4083, 4020
3282, 4071, 4035
3247, 4058, 4054
3211, 4045, 4073
3177, 4032, 4093
3140, 4018, 4113
3099, 4001, 4140
3056, 3983, 4168
3012, 3965, 4199
2965, 3944, 4234
2917, 3921, 4274
2872, 3900, 4312
2829, 3878, 4349
2783, 3856, 4392
2735, 3828, 4442
2688, 3802, 4492
2638, 3773, 4546
2585, 3740, 4611
2534, 3705, 4680
2487, 3673, 4746
2437, 3638, 4815
2388, 3600, 4895
2340, 3556, 4986
2290, 3513, 5075
2239, 3467, 5173
2191, 3414, 5285
2150, 3362, 5398
2109, 3312, 5507
2068, 3258, 5623
2034, 3197, 5758
2004, 3132, 5899
1975, 3067, 6043
1950, 2997, 6195
1941, 2926, 6349
1940, 2863, 6485
1937, 2800, 6615
1944, 2735, 6463
1972, 2671, 6563
2005, 2610, 6468
2036, 2545, 5917
2092, 2478, 5452
2171, 2422, 5739
2248, 2372, 5249
2326, 2319, 4858
2437, 2273, 4938
2577, 2237, 5362
2709, 2199, 6028
2855, 2163, 6929
3039, 2137, 7575
3228, 2124, 7866
3400, 2108, 8022
3587, 2093, 8073
3814, 2093, 8110
4048, 2101, 8132
4274, 2105, 8159
4513, 2114, 8170
4753, 2141, 8155
4958, 2170, 7977
5151, 2191, 6333
5349, 2220, 4869
5539, 2267, 4376
5709, 2312, 4238
5880, 2353, 4135
6050, 2406, 4044
6182, 2472, 3965
6299, 2530, 3903
6415, 2584, 3856
6518, 2650, 3827
6596, 2730, 3800
6665, 2802, 3868
6740, 2872, 3868
6795, 2954, 3960
6821, 3038, 4020
6844, 3112, 4054
6874, 3182, 4144
6883, 3262, 4139
6868, 3344, 4134
6856, 3419, 4948
6849, 3493, 5467
6820, 3566, 5738
6775, 3630, 6044
6744, 3684, 5907
6716, 3738, 5776
6668, 3791, 5627
6609, 3838, 5487
6560, 3882, 5362
6513, 3927, 5240
6449, 3967, 5116
6382, 4000, 5008
6331, 4031, 4916
6278, 4062, 4827
6209, 4089, 4735
6142, 4111, 4653
6082, 4135, 4580
6022, 4159, 4505
5953, 4178, 4436
5888, 4192, 4379
5834, 4207, 4328
5779, 4222, 4277
5713, 4234, 4227
5650, 4244, 4183
5593, 4255, 4142
5536, 4266, 4102
5479, 4273, 4069
5429, 4277, 4043
5386, 4283, 4018
5341, 4289, 3993
5294, 4292, 3972
5250, 4295, 3954
5207, 4299, 3935
5166, 4301, 3917
5126, 4303, 3904
5090, 4304, 3892
5057, 4306, 3880
5022, 4308, 3868
4987, 4308, 3860
4955, 4308, 3851
4925, 4310, 3843
4894, 4309, 3835
4865, 4308, 3830
4839, 4308, 3825
4815, 4308, 3821
4787, 4307, 3816
4762, 4306, 3812
4738, 4304, 3810
4715, 4304, 3807
4691, 4303, 3803
4673, 4302, 3802
4654, 4300, 3802
4637, 4299, 3800
4619, 4298, 3799
4603, 4297, 3800
4587, 4295, 3800
4572, 4295, 3799
4556, 4293, 3799
4543, 4291, 3801
4531, 4290, 3802
4518, 4289, 3801
4505, 4288, 3802
4494, 4286, 3804
4483, 4285, 3805
4473, 4284, 3806
4461, 4282, 3808
4452, 4281, 3810
4444, 4280, 3810
4435, 4279, 3812
4425, 4277, 3814
4417, 4276, 3816
4410, 4275, 3817
4402, 4275, 3820
4395, 4273, 3821
4391, 4272, 3824
4386, 4272, 3825
4380, 4271, 3827
4375, 4270, 3829
4371, 4269, 3831
4365, 4268, 3833
4360, 4268, 3835
4357, 4266, 3837
4353, 4266, 3839
4349, 4265, 3841
4345, 4264, 3843
4341, 4263, 3844
4338, 4262, 3847
4335, 4262, 3849
4331, 4260, 3851
4328, 4259, 3853
4325, 4259, 3855
4322, 4259, 3856
4319, 4258, 3858
4317, 4257, 3859
4314, 4256, 3863
4311, 4255, 3864
4310, 4254, 3866
4307, 4253, 3867
4306, 4252, 3869
4304, 4251, 3871
4302, 4251, 3872
4301, 4250, 3874
4299, 4249, 3876
4297, 4249, 3877
4297, 4247, 3879
4296, 4247, 3880
4295, 4247, 3881
4294, 4246, 3884
4293, 4245, 3885
4292, 4244, 3886
4291, 4244, 3888
4291, 4243, 3890
4290, 4243, 3891
4290, 4242, 3893
4289, 4241, 3894
4290, 4240, 3895
4289, 4240, 3897
4289, 4239, 3898
4289, 4238, 3899
4289, 4237, 3902
4289, 4237, 3903
4290, 4236, 3904
4290, 4235, 3905
4291, 4235, 3907
4291, 4235, 3908
4292, 4233, 3910
4293, 4233, 3911
4295, 4233, 3912
4295, 4232, 3914
4296, 4231, 3915
4298, 4230, 3917
4299, 4229, 3918
4301, 4231, 3919
4301, 4229, 3921
4303, 4228, 3922
4305, 4227, 3923
4306, 4227, 3925
4308, 4226, 3926
4309, 4226, 3927
4312, 4224, 3930
4313, 4224, 3931
4315, 4223, 3932
4317, 4222, 3933
4319, 4221, 3935
4321, 4221, 3936
4323, 4220, 3938
4325, 4219, 3939
4328, 4218, 3940
4329, 4217, 3942
4330, 4216, 3943
4332, 4215, 3944
4334, 4213, 3945
4335, 4212, 3946
4337, 4212, 3948
4339, 4210, 3948
4342, 4208, 3949
4343, 4208, 3950
4346, 4206, 3952
4348, 4205, 3954
4351, 4204, 3954
4355, 4203, 3955
4357, 4202, 3956
4361, 4201, 3957
4365, 4199, 3958
4369, 4198, 3959
4373, 4197, 3961
4376, 4196, 3962
4380, 4194, 3963
4385, 4192, 3964
4389, 4191, 3965
4395, 4190, 3966
4400, 4187, 3967
4406, 4186, 3968
4411, 4185, 3969
4416, 4183, 3970
4421, 4182, 3971
4427, 4181, 3972
4433, 4179, 3972
4438, 4177, 3974
4445, 4176, 3974
4452, 4174, 3975
4459, 4172, 3976
4465, 4170, 3976
4471, 4169, 3977
4479, 4168, 3977
4487, 4165, 3978
4495, 4164, 3979
4502, 4162, 3980
4511, 4160, 3980
4521, 4157, 3980
4530, 4155, 3980
4538, 4154, 3980
4548, 4150, 3981
4558, 4149, 3980
4569, 4146, 3981
4580, 4144, 3981
4592, 4142, 3981
4606, 4139, 3979
4618, 4136, 3978
4629, 4133, 3978
4641, 4132, 3978
4653, 4128, 3977
4666, 4125, 3974
4680, 4123, 3973
4693, 4121, 3971
4710, 4116, 3969
4725, 4113, 3967
4739, 4112, 3965
4755, 4108, 3962
4771, 4105, 3960
4789, 4101, 3956
4806, 4096, 3953
4825, 4096, 3949
4844, 4092, 3944
4866, 4088, 3940
4886, 4084, 3934
4906, 4080, 3929
4927, 4076, 3923
4952, 4072, 3915
4978, 4068, 3907
5004, 4063, 3899
5031, 4059, 3890
5061, 4053, 3880
5090, 4049, 3869
5116, 4044, 3858
5143, 4040, 3848
5172, 4035, 3835
5203, 4030, 3822
5235, 4025, 3809
5266, 4020, 3795
5303, 4016, 3777
5339, 4010, 3757
5375, 4004, 3740
5409, 3999, 3722
5445, 3994, 3702
5486, 3987, 3678
5527, 3981, 3652
5566, 3976, 3628
5609, 3969, 3599
5657, 3962, 3566
5704, 3955, 3531
5746, 3948, 3500
5790, 3940, 3465
5839, 3933, 3425
5892, 3925, 3379
5945, 3915, 3330
6000, 3906, 3278
6059, 3896, 3220
6118, 3886, 3157
6169, 3877, 3099
6219, 3868, 3041
6271, 3858, 2979
6327, 3847, 2907
6379, 3836, 2835
6432, 3825, 2760
6489, 3814, 2676
6548, 3800, 2582
6603, 3787, 2489
6653, 3774, 2401
6704, 3761, 2308
6755, 3748, 2205
6808, 3732, 2093
6856, 3717, 1987
6906, 3701, 1964
6955, 3682, 2522
7000, 3664, 3786
7042, 3646, 4130
7079, 3627, 4196
7114, 3607, 4144
7149, 3585, 4151
7179, 3562, 4173
7202, 3538, 4186
7225, 3511, 4296
7237, 3485, 4339
7242, 3460, 4384
7245, 3434, 4434
7242, 3409, 4498
7227, 3384, 4475
7207, 3357, 4451
7184, 3330, 4431
7150, 3301, 4401
7101, 3273, 4364
7045, 3244, 4326
6987, 3216, 4289
6920, 3189, 4248
6839, 3163, 4201
6742, 3132, 4146
6636, 3107, 4088
6523, 3078, 4023
6390, 3047, 3943
6233, 3019, 3846
6075, 2992, 3740
5925, 2962, 3629
5758, 2934, 3486
5558, 2907, 3295
5342, 2876, 3044
5128, 2844, 2746
4899, 2812, 2338
4651, 2779, 1692
4413, 2748, 907
4206, 2720, 916
4007, 2690, 1526
3792, 2661, 2048
3572, 2634, 2488
3372, 2605, 2792
3176, 2574, 3038
2970, 2545, 3252
2770, 2520, 3439
2593, 2493, 3579
2437, 2468, 3686
2289, 2447, 3784
2140, 2426, 3877
1998, 2403, 3957
1876, 2388, 4023
1764, 2371, 4084
1652, 2356, 4143
1556, 2351, 4198
1480, 2346, 4242
1412, 2336, 4280
1355, 2338, 4318
1305, 2344, 4356
1262, 2351, 4393
1229, 2360, 4416
1208, 2377, 4418
1192, 2395, 4409
1188, 2420, 4355
1192, 2442, 4318
1196, 2461, 4222
1208, 2486, 4180
1229, 2518, 4168
1250, 2547, 4156
1274, 2574, 4151
1306, 2607, 4076
1345, 2646, 4004
1384, 2681, 3588
1420, 2711, 3009
1459, 2743, 2051
1503, 2778, 2158
1551, 2814, 2121
1601, 2850, 2237
1648, 2883, 2341
1699, 2918, 2451
1756, 2955, 2562
1813, 2993, 2664
1863, 3024, 2751
1912, 3053, 2833
1966, 3087, 2916
2025, 3121, 3001
2083, 3154, 3081
2139, 3185, 3154
2197, 3219, 3227
2258, 3252, 3296
2312, 3283, 3356
2359, 3307, 3406
2405, 3330, 3452
2452, 3356, 3498
2502, 3382, 3541
2547, 3406, 3582
2590, 3428, 3619
2637, 3452, 3656
2685, 3477, 3692
2731, 3499, 3725
2768, 3518, 3753
2806, 3537, 3779
2845, 3557, 3804
2885, 3577, 3829
2923, 3597, 3852
2959, 3614, 3873
2996, 3633, 3894
3034, 3652, 3914
3070, 3670, 3931
3101, 3686, 3946
3131, 3700, 3960
3163, 3716, 3975
3196, 3732, 3988
3229, 3748, 4001
3257, 3763, 4012
3289, 3779, 4024
3319, 3795, 4033
3346, 3807, 4043
3369, 3819, 4050
3391, 3830, 4057
3414, 3842, 4063
3437, 3854, 4068
3458, 3865, 4074
3479, 3875, 4079
3500, 3887, 4083
3521, 3897, 4088
3540, 3907, 4092
3556, 3915, 4096
3574, 3924, 4096
3591, 3934, 4098
3609, 3943, 4101
3626, 3952, 4103
3642, 3961, 4105
3660, 3970, 4107
3676, 3979, 4108
3692, 3986, 4108
3705, 3994, 4110
3718, 4000, 4111
3733, 4008, 4111
3747, 4017, 4111
3760, 4024, 4112
3774, 4031, 4112
3787, 4038, 4112
3799, 4045, 4112
3808, 4051, 4111
3817, 4055, 4111
3828, 4062, 4111
3837, 4067, 4110
3847, 4072, 4109
3856, 4078, 4109
3865, 4084, 4108
3874, 4089, 4107
3882, 4096, 4106
3890, 4096, 4105
3897, 4101, 4105
3905, 4106, 4103
3912, 4111, 4102
3919, 4115, 4101
3926, 4120, 4100
3933, 4124, 4099
3939, 4129, 4096
3945, 4131, 4096
3951, 4135, 4096
3957, 4138, 4096
3963, 4142, 4096
3968, 4146, 4096
3974, 4149, 4096
3980, 4153, 4092
3985, 4156, 4090
3990, 4159, 4089
3994, 4162, 4088
3998, 4165, 4087
4002, 4168, 4086
4007, 4171, 4085
4011, 4174, 4084
4015, 4176, 4082
4019, 4179, 4081
4022, 4181, 4081
4027, 4183, 4079
4031, 4186, 4078
4034, 4188, 4077
4037, 4190, 4076
4042, 4192, 4075
4044, 4194, 4073
4049, 4196, 4072
4051, 4198, 4071
4055, 4201, 4071
4057, 4203, 4070
4061, 4204, 4069
4065, 4206, 4068
4068, 4209, 4066
4071, 4211, 4066
4074, 4213, 4064
4077, 4214, 4064
4079, 4216, 4063
4082, 4217, 4062
4085, 4219, 4061
4088, 4220, 4061
4091, 4222, 4059
4094, 4223, 4058
4096, 4225, 4057
4096, 4226, 4056
4098, 4228, 4056
4101, 4229, 4055
4103, 4230, 4054
4105, 4231, 4053
4109, 4233, 4051
4110, 4234, 4051
4112, 4235, 4050
4114, 4236, 4049
4115, 4237, 4048
4117, 4239, 4047
4118, 4240, 4047
4121, 4241, 4045
4122, 4241, 4044
4123, 4243, 4043
4124, 4243, 4042
4124, 4244, 4042
4124, 4244, 4041
4124, 4245, 4040
4125, 4245, 4038
4126, 4246, 4038
4127, 4246, 4037
4127, 4247, 4036
4128, 4248, 4035
4128, 4248, 4034
4128, 4249, 4033
4129, 4249, 4032
4131, 4250, 4031
4131, 4250, 4031
4131, 4251, 4030
4132, 4252, 4029
4132, 4253, 4028
4133, 4253, 4028
4134, 4254, 4026
4135, 4254, 4025
4135, 4255, 4024
4136, 4256, 4023
4136, 4256, 4023
4137, 4256, 4022
4137, 4257, 4021
4137, 4257, 4021
4138, 4258, 4020
4139, 4258, 4019
4139, 4258, 4019
4139, 4259, 4018
4140, 4259, 4018
4140, 4259, 4017
4140, 4260, 4017
4141, 4261, 4016
4141, 4261, 4015
4141, 4262, 4014
4142, 4262, 4014
4142, 4262, 4013
4142, 4262, 4013
4142, 4263, 4012
4142, 4263, 4012
4143, 4264, 4012
4143, 4263, 4011
4143, 4265, 4011
4143, 4265, 4011
4143, 4265, 4010
4143, 4265, 4009
4143, 4266, 4008
4144, 4267, 4009
4144, 4266, 4008
4144, 4267, 4007
4143, 4267, 4008
4143, 4267, 4007
4143, 4267, 4006
4143, 4268, 4006
4143, 4267, 4005
4142, 4268, 4005
4142, 4269, 4005
4142, 4269, 4004
4141, 4270, 4004
4141, 4269, 4004
4140, 4269, 4004
4140, 4270, 4004
4140, 4269, 4003
4139, 4269, 4003
4139, 4270, 4002
4138, 4270, 4002
4138, 4270, 4001
4138, 4270, 4001
4137, 4271, 4001
4137, 4272, 4000
4136, 4271, 3999
4136, 4271, 4000
4136, 4272, 3999
4136, 4272, 3999
4135, 4271, 3999
4135, 4273, 3998
4135, 4273, 3999
4135, 4273, 3998
4134, 4272, 3998
4134, 4274, 3997
4134, 4274, 3997
4135, 4274, 3997
4135, 4274, 3996
4135, 4275, 3997
4135, 4276, 3997
4137, 4275, 3996
4137, 4277, 3996
4138, 4277, 3995
4138, 4277, 3995
4139, 4278, 3996
4139, 4279, 3995
4139, 4279, 3995
4139, 4279, 3995
4139, 4280, 3994
4139, 4280, 3994
4139, 4280, 3994
4140, 4280, 3995
4139, 4280, 3994
4140, 4281, 3994
4139, 4282, 3994
4139, 4282, 3993
4140, 4281, 3993
4140, 4282, 3992
4139, 4282, 3992
4140, 4282, 3992
4140, 4282, 3992
4140, 4282, 3992
4140, 4283, 3991
4140, 4283, 3991
4139, 4284, 3990
4140, 4283, 3990
4139, 4284, 3990
4139, 4284, 3989
4139, 4284, 3988
4139, 4284, 3987
4139, 4284, 3988
4138, 4284, 3987
4138, 4285, 3986
4139, 4285, 3986
4139, 4285, 3985
4139, 4286, 3985
4138, 4286, 3984
4138, 4286, 3983
4137, 4286, 3982
4138, 4286, 3982
4137, 4285, 3980
4137, 4286, 3980
4137, 4286, 3979
4137, 4287, 3980
4136, 4286, 3979
4136, 4286, 3978
4136, 4286, 3977
4135, 4286, 3975
4135, 4286, 3975
4134, 4286, 3974
4134, 4286, 3973
4134, 4287, 3973
4134, 4287, 3972
4133, 4287, 3971
4133, 4287, 3970
4133, 4287, 3970
4133, 4286, 3968
4133, 4286, 3968
4132, 4287, 3967
4132, 4287, 3966
4132, 4286, 3965
4131, 4286, 3964
4131, 4286, 3964
4130, 4286, 3963
4129, 4286, 3962
4129, 4286, 3960
4128, 4286, 3960
4128, 4286, 3960
4127, 4286, 3958
4127, 4286, 3957
4126, 4285, 3956
4125, 4286, 3955
4123, 4286, 3955
4122, 4285, 3953
4121, 4284, 3952
4120, 4285, 3951
4118, 4284, 3950
4116, 4283, 3949
4114, 4283, 3948
4112, 4282, 3947
4109, 4283, 3945
4106, 4281, 3944
4105, 4281, 3943
4102, 4280, 3942
4098, 4280, 3941
4096, 4279, 3940
4096, 4279, 3939
4096, 4279, 3937
4091, 4278, 3936
4088, 4277, 3935
4085, 4276, 3934
4083, 4277, 3932
4081, 4276, 3931
4077, 4276, 3929
4074, 4275, 3929
4071, 4275, 3926
4069, 4274, 3925
4065, 4272, 3923
4062, 4272, 3922
4059, 4272, 3921
4056, 4271, 3919
4052, 4270, 3918
4049, 4270, 3918
4045, 4269, 3917
4041, 4269, 3915
4037, 4268, 3914
4033, 4267, 3912
4029, 4266, 3911
4025, 4266, 3910
4019, 4264, 3908
4015, 4264, 3908
4010, 4263, 3907
4005, 4262, 3905
3999, 4260, 3905
3994, 4260, 3903
3988, 4258, 3902
3982, 4257, 3901
3976, 4256, 3900
3969, 4255, 3898
3962, 4253, 3898
3954, 4252, 3897
3944, 4250, 3896
3938, 4249, 3895
3931, 4247, 3895
3923, 4246, 3893
3913, 4244, 3892
3905, 4242, 3892
3896, 4240, 3892
3885, 4238, 3891
3875, 4236, 3891
3865, 4234, 3892
3854, 4231, 3891
3843, 4228, 3891
3830, 4226, 3892
3817, 4222, 3891
3804, 4220, 3892
3790, 4217, 3893
3774, 4214, 3894
3760, 4210, 3895
3747, 4206, 3896
3729, 4203, 3898
3711, 4198, 3901
3693, 4194, 3903
3674, 4189, 3906
3652, 4182, 3910
3632, 4177, 3914
3612, 4172, 3917
3592, 4166, 3923
3570, 4161, 3927
3547, 4154, 3934
3524, 4148, 3940
3499, 4141, 3948
3472, 4132, 3957
3444, 4124, 3966
3420, 4116, 3976
3393, 4107, 3986
3364, 4096, 3999
3332, 4087, 4013
3301, 4078, 4028
3267, 4065, 4044
3229, 4051, 4064
3193, 4038, 4084
3159, 4025, 4104
3121, 4010, 4127
3076, 3992, 4156
3033, 3974, 4186
2989, 3954, 4218
2941, 3932, 4254
2893, 3910, 4295
2849, 3889, 4333
2806, 3868, 4371
2758, 3842, 4416
2711, 3815, 4468
2665, 3788, 4518
2614, 3759, 4575
2562, 3725, 4641
2513, 3691, 4710
2465, 3658, 4776
2417, 3623, 4847
2368, 3583, 4930
2320, 3540, 5020
2270, 3497, 5110
2221, 3450, 5211
2174, 3396, 5326
2134, 3344, 5439
2093, 3294, 5549
2055, 3239, 5667
2023, 3178, 5801
1994, 3114, 5943
1966, 3048, 6085
1945, 2979, 6238
1939, 2908, 6389
1939, 2845, 6524
1937, 2784, 6651
1947, 2719, 6483
1977, 2656, 6596
2011, 2595, 6265
2046, 2531, 5811
2102, 2468, 5332
2182, 2414, 5403
2260, 2364, 5216
2337, 2313, 4983
2446, 2269, 4823
2584, 2232, 5367
2716, 2197, 6034
2860, 2161, 6710
3043, 2136, 7581
3236, 2122, 7871
3410, 2106, 8026
3595, 2092, 8077
3819, 2092, 8114
4054, 2101, 8136
4278, 2105, 8159
4515, 2114, 8172
4756, 2139, 8157
4968, 2170, 7976
5156, 2192, 6119
5349, 2220, 4812
5538, 2263, 4381
5707, 2310, 4241
5872, 2351, 4141
6039, 2400, 4051
6178, 2465, 3971
6294, 2526, 3913
6408, 2580, 3859
6512, 2642, 3824
6591, 2719, 3795
6658, 2793, 3826
6730, 2862, 3885
6787, 2940, 3951
6817, 3026, 3936
6837, 3103, 4047
6866, 3171, 4044
6882, 3247, 4131
6871, 3331, 4212
6856, 3409, 4419
6848, 3481, 5404
6827, 3555, 5702
6783, 3622, 6066
6744, 3678, 5921
6718, 3729, 5794
6679, 3782, 5654
6619, 3830, 5511
6567, 3873, 5387
6523, 3916, 5270
6467, 3957, 5147
6397, 3992, 5034
6340, 4022, 4939
6292, 4053, 4852
6231, 4082, 4762
6159, 4106, 4676
6098, 4127, 4601
6040, 4151, 4528
5974, 4172, 4457
5904, 4188, 4395
5849, 4201, 4344
5797, 4217, 4294
5735, 4230, 4243
5669, 4241, 4198
5610, 4250, 4157
5555, 4261, 4117
5499, 4269, 4082
5445, 4274, 4053
5401, 4280, 4030
5359, 4286, 4005
5312, 4290, 3982
5266, 4293, 3963
5226, 4296, 3945
5185, 4300, 3927
5142, 4302, 3911
5104, 4303, 3898
5071, 4304, 3887
5037, 4306, 3875
5002, 4307, 3865
4968, 4307, 3857
4938, 4307, 3849
4907, 4307, 3840
4876, 4307, 3833
4848, 4306, 3829
4823, 4306, 3825
4799, 4306, 3819
4772, 4305, 3815
4747, 4303, 3813
4724, 4303, 3810
4701, 4302, 3806
4679, 4300, 3804
4661, 4299, 3803
4645, 4298, 3802
4627, 4297, 3800
4610, 4296, 3800
4594, 4295, 3800
4580, 4293, 3800
4565, 4292, 3801
4550, 4291, 3801
4537, 4289, 3802
4525, 4289, 3802
4514, 4287, 3802
4502, 4287, 3804
4492, 4285, 3805
4482, 4285, 3806
4472, 4284, 3807
4462, 4283, 3810
4455, 4282, 3811
4447, 4281, 3812
4438, 4280, 3814
4429, 4278, 3816
4422, 4277, 3818
4414, 4276, 3820
4406, 4275, 3822
4400, 4274, 3824
4394, 4273, 3826
4389, 4272, 3828
4382, 4271, 3829
4377, 4270, 3832
4372, 4269, 3834
4367, 4268, 3835
4362, 4267, 3837
4358, 4266, 3840
4354, 4265, 3840
4350, 4264, 3843
4345, 4264, 3844
4342, 4262, 3846
4338, 4262, 3848
4334, 4261, 3850
4332, 4260, 3852
4328, 4260, 3853
4326, 4259, 3855
4323, 4258, 3857
4320, 4257, 3859
4317, 4256, 3860
4315, 4255, 3862
4312, 4255, 3864
4310, 4254, 3866
4308, 4253, 3867
4307, 4252, 3870
4304, 4252, 3871
4303, 4251, 3872
4302, 4250, 3874
4300, 4250, 3875
4299, 4249, 3876
4297, 4249, 3878
4296, 4248, 3880
4296, 4247, 3883
4296, 4247, 3884
4295, 4246, 3885
4294, 4245, 3887
4294, 4245, 3888
4294, 4245, 3890
4294, 4244, 3891
4294, 4243, 3893
4294, 4242, 3895
4294, 4242, 3896
4295, 4241, 3897
4295, 4241, 3900
4295, 4240, 3901
4295, 4240, 3903
4296, 4239, 3903
4297, 4238, 3906
4297, 4237, 3908
4298, 4237, 3909
4298, 4236, 3910
4299, 4237, 3911
4300, 4234, 3913
4300, 4234, 3915
4300, 4234, 3915
4300, 4233, 3917
4301, 4232, 3919
4301, 4231, 3920
4300, 4229, 3920
4300, 4229, 3922
4301, 4228, 3923
4301, 4227, 3924
